param_alpha=7.0
param_noise_gyro=0.003
param_noise_pos=0.04
param_noise_v=0.9
param_pwm_noise=0.0
param_qf=0.0
param_zacc_noise=0.0
param_zacc_zero=0.0
tgy=7 gy=0.001674043
tstate=7 phi=-0.18021259851309188 phidot=0.0016731279795541565
tgy=17 gy=4.523117E-4
tstate=17 phi=-0.1806319760272303 phidot=4.5143216555046384E-4
tzacc=18 zacc=3.5625722
tard=17 steps=0 speed=0.0 pwm=0.0 volt=9.212036 mode=2
tgy=26 gy=4.523117E-4
tstate=26 phi=-0.18098063209174223 phidot=4.514177211001613E-4
tgy=35 gy=0.0065609645
tstate=35 phi=-0.18132875421347147 phidot=0.006560000243706232
tard=39 steps=0 speed=0.0 pwm=0.0 volt=9.200134 mode=2
tzacc=40 zacc=3.5625722
tgy=45 gy=4.523117E-4
tstate=45 phi=-0.18169994571980438 phidot=4.514761336700812E-4
tard=51 steps=0 speed=0.0 pwm=0.0 volt=9.212036 mode=2
tgy=54 gy=-0.001991149
tstate=54 phi=-0.1820486726976904 phidot=-0.001992020878493872
tzacc=61 zacc=3.5051112
tard=62 steps=0 speed=0.0 pwm=0.0 volt=9.200134 mode=2
tgy=63 gy=0.001674043
tstate=63 phi=-0.18241868868457073 phidot=0.0016731008423274268
tgy=72 gy=-0.001991149
tstate=72 phi=-0.18275653497422556 phidot=-0.0019920106917303004
tzacc=81 zacc=3.5434184
tgy=82 gy=-0.001991149
tstate=82 phi=-0.1832127590676333 phidot=-0.0019920535738192635
tard=86 steps=0 speed=0.0 pwm=0.0 volt=9.212036 mode=2
tard=89 steps=0 speed=0.0 pwm=0.0 volt=9.200134 mode=0
tgy=91 gy=0.001674043
tstate=91 phi=-0.18358260804502266 phidot=0.0016730950926870936
tard=91 steps=0 speed=0.0 pwm=0.0 volt=9.200134 mode=0
tgy=100 gy=0.0028957725
tstate=100 phi=-0.18391975898336982 phidot=0.0028948502111924984
tzacc=101 zacc=3.4859576
tard=107 steps=0 speed=0.0 pwm=13.0 volt=9.140625 mode=0
tgy=109 gy=-0.0032128803
tstate=109 phi=-0.1842469442608022 phidot=-0.0032137219625436447
tgy=119 gy=0.005339233
tstate=119 phi=-0.18471406993272718 phidot=0.005338234903607811
tard=120 steps=1 speed=0.0 pwm=25.0 volt=9.152527 mode=0
tzacc=122 zacc=3.5434184
tgy=128 gy=4.523117E-4
tstate=128 phi=-0.18501907680680604 phidot=4.51452509505762E-4
tard=132 steps=2 speed=80.0 pwm=38.0 volt=9.128723 mode=0
tgy=137 gy=4.523117E-4
tstate=137 phi=-0.1853670138342577 phidot=4.5139605443951514E-4
tzacc=142 zacc=3.6583402
tard=145 steps=4 speed=125.0 pwm=49.0 volt=9.093018 mode=0
tgy=147 gy=0.005339233
tstate=147 phi=-0.18579793987324433 phidot=0.005338266482607379
tgy=156 gy=-7.694196E-4
tstate=156 phi=-0.18610299199036262 phidot=-7.70270437746301E-4
tard=161 steps=6 speed=142.0 pwm=63.0 volt=8.973999 mode=0
tzacc=162 zacc=3.1411927
tgy=165 gy=-0.009321533
tstate=165 phi=-0.18646339911519128 phidot=-0.009322358205929082
tard=173 steps=10 speed=250.0 pwm=77.0 volt=8.926392 mode=0
tgy=174 gy=-0.14493363
tstate=174 phi=-0.1869293488358305 phidot=-0.14493302722379653
tzacc=183 zacc=5.4779334
tgy=184 gy=-0.39783183
tstate=184 phi=-0.18887444749510787 phidot=-0.39783020188080626
tard=186 steps=14 speed=306.0 pwm=90.0 volt=8.85498 mode=0
tgy=193 gy=-0.25366762
tstate=193 phi=-0.19277370205254998 phidot=-0.25367018415051645
tard=200 steps=18 speed=346.0 pwm=102.0 volt=8.735962 mode=0
tgy=202 gy=0.10674286
tstate=202 phi=-0.19532549461613902 phidot=0.10673785473902425
tzacc=203 zacc=7.393295
tard=213 steps=23 speed=401.0 pwm=116.0 volt=8.72406 mode=0
tgy=212 gy=0.11651671
tstate=212 phi=-0.1947087757771483 phidot=0.11651564658949572
tgy=221 gy=-0.00443461
tstate=221 phi=-0.1940562767051982 phidot=-0.0044342134912749645
tard=226 steps=30 speed=499.0 pwm=129.0 volt=8.545532 mode=0
tzacc=224 zacc=5.707777
tgy=230 gy=0.07742134
tstate=230 phi=-0.19443345843454274 phidot=0.07741945837217888
tard=239 steps=37 speed=578.0 pwm=142.0 volt=8.569336 mode=0
tgy=239 gy=0.15194689
tstate=239 phi=-0.19407522469716443 phidot=0.15194509057787187
tzacc=244 zacc=3.8115692
tgy=249 gy=0.06886922
tstate=249 phi=-0.1930276996634179 phidot=0.06886910058633225
tard=253 steps=46 speed=678.0 pwm=0.0 volt=8.843079 mode=4
tgy=258 gy=-0.02886922
tstate=258 phi=-0.19279497637652246 phidot=-0.028869076052344657
tard=266 steps=53 speed=518.0 pwm=0.0 volt=9.140625 mode=4
tzacc=264 zacc=4.903325
tgy=267 gy=-0.010543263
tstate=267 phi=-0.19340364532032817 phidot=-0.010544422950887047
tgy=276 gy=0.19837265
tstate=276 phi=-0.19378337542882737 phidot=0.1983693454958152
tard=279 steps=58 speed=391.0 pwm=0.0 volt=9.176331 mode=4
tzacc=285 zacc=2.7581203
tgy=286 gy=0.31565878
tstate=286 phi=-0.19220106262835537 phidot=0.3156566393953101
tard=291 steps=62 speed=278.0 pwm=0.0 volt=9.176331 mode=4
tgy=295 gy=0.13972959
tstate=295 phi=-0.1897744147059677 phidot=0.1397306192607718
tard=304 steps=64 speed=221.0 pwm=0.0 volt=9.176331 mode=4
tgy=304 gy=-0.011764992
tstate=304 phi=-0.1889184898533399 phidot=-0.011764228057212209
tzacc=305 zacc=3.4093432
tgy=314 gy=0.10185595
tstate=314 phi=-0.1894210037016094 phidot=0.10185386597368067
tard=320 steps=66 speed=161.0 pwm=0.0 volt=9.176331 mode=4
tgy=323 gy=0.862994
tstate=323 phi=-0.18855134919160668 phidot=0.8629845392462047
tzacc=325 zacc=4.9224787
tgy=332 gy=1.3602383
tstate=332 phi=-0.18092739391819898 phidot=1.3602318200997494
tard=334 steps=67 speed=118.0 pwm=0.0 volt=9.188232 mode=4
tgy=341 gy=1.093901
tstate=341 phi=-0.16912192648753838 phidot=1.0939031616580084
tard=348 steps=68 speed=82.0 pwm=0.0 volt=9.200134 mode=4
tzacc=346 zacc=0.59376204
tgy=351 gy=0.8019075
tstate=351 phi=-0.15868627807047786 phidot=0.8019096187347687
tard=361 steps=68 speed=38.0 pwm=0.0 volt=9.188232 mode=4
tgy=360 gy=0.6943952
tstate=360 phi=-0.15180090024845505 phidot=0.6943956235389135
tzacc=366 zacc=2.0685902
tgy=369 gy=0.66018677
tstate=369 phi=-0.14583872237407128 phidot=0.6601864157205908
tard=373 steps=69 speed=72.0 pwm=0.0 volt=9.200134 mode=4
tgy=378 gy=0.62231314
tstate=378 phi=-0.14017508724683408 phidot=0.6223128598262657
tard=385 steps=69 speed=47.0 pwm=0.0 volt=9.200134 mode=4
tzacc=386 zacc=2.432509
tgy=388 gy=0.61620444
tstate=388 phi=-0.13426710613707096 phidot=0.6162038240518029
tard=398 steps=69 speed=29.0 pwm=0.0 volt=9.200134 mode=4
tgy=397 gy=0.58688295
tstate=397 phi=-0.12897411075243517 phidot=0.5868826271983585
tgy=406 gy=0.5429006
tstate=406 phi=-0.12394242208724016 phidot=0.5429004902620708
tard=410 steps=69 speed=21.0 pwm=0.0 volt=9.176331 mode=4
tzacc=407 zacc=1.7621324
tgy=416 gy=0.47692722
tstate=416 phi=-0.11882033670483602 phidot=0.47692728718362604
tard=423 steps=69 speed=16.0 pwm=0.0 volt=9.188232 mode=4
tgy=425 gy=0.43783185
tstate=425 phi=-0.11475751289086497 phidot=0.4378317101972971
tzacc=427 zacc=2.030283
tgy=434 gy=0.40728858
tstate=434 phi=-0.11103480911685086 phidot=0.40728836574293426
tard=437 steps=69 speed=0.0 pwm=0.0 volt=9.200134 mode=4
tgy=443 gy=0.35231072
tstate=443 phi=-0.10759317161611326 phidot=0.3523107936246086
tard=450 steps=69 speed=0.0 pwm=0.0 volt=9.188232 mode=4
tzacc=447 zacc=1.9536686
tgy=453 gy=0.30832842
tstate=453 phi=-0.10432941293794902 phidot=0.30832834039973683
tard=462 steps=69 speed=0.0 pwm=0.0 volt=9.188232 mode=4
tgy=462 gy=0.27900687
tstate=462 phi=-0.10175262335011843 phidot=0.2790066882231321
tzacc=468 zacc=1.8770541
tgy=471 gy=0.24235494
tstate=471 phi=-0.09943917500297135 phidot=0.24235485831688208
tard=475 steps=69 speed=0.0 pwm=0.0 volt=9.212036 mode=4
tgy=480 gy=0.19837265
tstate=480 phi=-0.0974556685870928 phidot=0.19837265401608747
tard=488 steps=69 speed=0.0 pwm=0.0 volt=9.188232 mode=4
tzacc=488 zacc=2.0494366
tgy=490 gy=0.15683381
tstate=490 phi=-0.09570735810608522 phidot=0.15683375474926398
tard=500 steps=69 speed=0.0 pwm=0.0 volt=9.200134 mode=4
tgy=499 gy=0.12995574
tstate=499 phi=-0.09447682003983447 phidot=0.12995557028221644
tgy=508 gy=0.08475171
tstate=508 phi=-0.09349701777735607 phidot=0.08475175290373405
tard=513 steps=69 speed=0.0 pwm=0.0 volt=9.212036 mode=4
tzacc=509 zacc=1.934515
tgy=517 gy=0.060317107
tstate=517 phi=-0.09290950476194548 phidot=0.060316919963090423
tard=525 steps=69 speed=0.0 pwm=0.0 volt=9.212036 mode=4
tgy=527 gy=0.02122173
tstate=527 phi=-0.09253000451820902 phidot=0.021221667417385078
tzacc=529 zacc=1.8195933
tard=538 steps=69 speed=0.0 pwm=0.0 volt=9.200134 mode=4
tgy=536 gy=-0.03009095
tstate=536 phi=-0.09252941314275064 phidot=-0.03009083207051253
tgy=545 gy=-0.0679646
tstate=545 phi=-0.09298190005108214 phidot=-0.06796463209981704
tard=551 steps=69 speed=0.0 pwm=0.0 volt=9.212036 mode=4
tzacc=549 zacc=1.8387469
tgy=555 gy=-0.08629055
tstate=555 phi=-0.09387112929545782 phidot=-0.08629082990168582
tard=562 steps=69 speed=0.0 pwm=0.0 volt=9.200134 mode=4
tgy=564 gy=-0.11927728
tstate=564 phi=-0.09482822000997346 phidot=-0.1192773798367052
tzacc=570 zacc=1.9728222
tgy=573 gy=-0.16692477
tstate=573 phi=-0.09609375374713865 phidot=-0.16692471191248814
tard=576 steps=69 speed=0.0 pwm=0.0 volt=9.200134 mode=4
tgy=582 gy=-0.19868976
tstate=582 phi=-0.09777911449490485 phidot=-0.19868988156037692
tard=589 steps=69 speed=0.0 pwm=0.0 volt=9.200134 mode=4
tzacc=590 zacc=1.8195933
tgy=592 gy=-0.23289822
tstate=592 phi=-0.09999547549245988 phidot=-0.23289836370266728
tgy=601 gy=-0.27443704
tstate=601 phi=-0.10228781376597439 phidot=-0.2744370739904968
tard=604 steps=69 speed=0.0 pwm=0.0 volt=9.200134 mode=4
tgy=610 gy=-0.3123107
tstate=610 phi=-0.10495501535382891 phidot=-0.3123107829347419
tzacc=611 zacc=1.8579005
tard=618 steps=69 speed=0.0 pwm=0.0 volt=9.200134 mode=4
tgy=619 gy=-0.3575147
tstate=619 phi=-0.10797282510683488 phidot=-0.35751472831862435
tard=629 steps=69 speed=0.0 pwm=0.0 volt=9.200134 mode=4
tgy=629 gy=-0.40271875
tstate=629 phi=-0.11180599736379514 phidot=-0.40271883924095253
tzacc=631 zacc=1.9536686
tgy=638 gy=-0.43814892
tstate=638 phi=-0.11564102386762154 phidot=-0.43814908041695544
tard=640 steps=69 speed=0.0 pwm=0.0 volt=9.188232 mode=4
tgy=647 gy=-0.47846603
tstate=647 phi=-0.11980481120503471 phidot=-0.4784661635203408
tard=652 steps=69 speed=0.0 pwm=0.0 volt=9.200134 mode=4
tzacc=651 zacc=1.8962077
tgy=656 gy=-0.5297787
tstate=656 phi=-0.12434679602363317 phidot=-0.5297787466696084
tard=662 steps=69 speed=0.0 pwm=0.0 volt=9.200134 mode=4
tgy=666 gy=-0.578648
tstate=666 phi=-0.12993845914493984 phidot=-0.5786481060333333
tzacc=671 zacc=1.8004397
tard=674 steps=69 speed=0.0 pwm=0.0 volt=9.188232 mode=4
tgy=675 gy=-0.62751716
tstate=675 phi=-0.1353963024210693 phidot=-0.6275172712558527
tard=686 steps=69 speed=0.0 pwm=0.0 volt=9.200134 mode=4
tgy=684 gy=-0.6763864
tstate=684 phi=-0.14130260624512375 phidot=-0.6763865515503252
tzacc=692 zacc=1.9728222
tgy=694 gy=-0.73747295
tstate=694 phi=-0.14840439163650718 phidot=-0.737473050450413
tard=699 steps=69 speed=0.0 pwm=0.0 volt=9.200134 mode=4
tgy=703 gy=-0.80588984
tstate=703 phi=-0.15533744811043823 phidot=-0.805889827988229
tard=711 steps=69 speed=0.0 pwm=0.0 volt=9.212036 mode=4
tzacc=712 zacc=1.9536686
tgy=712 gy=-0.8657546
tstate=712 phi=-0.16288983510230745 phidot=-0.8657547192013813
tard=723 steps=69 speed=0.0 pwm=0.0 volt=9.188232 mode=4
tgy=721 gy=-0.92684114
tstate=721 phi=-0.17099391219254928 phidot=-0.9268412796472553
tgy=731 gy=-1.000145
tstate=731 phi=-0.18066988011230525 phidot=-1.0001450872665898
tard=736 steps=69 speed=0.0 pwm=0.0 volt=9.200134 mode=4
tzacc=732 zacc=1.8387469
tgy=740 gy=-1.0881096
tstate=740 phi=-0.19003543419155444 phidot=-1.0881095417391358
tard=748 steps=69 speed=0.0 pwm=0.0 volt=9.200134 mode=4
tgy=749 gy=-1.2151695
tstate=749 phi=-0.2002432505565162 phidot=-1.2151690879612929
tzacc=753 zacc=11.856087
tard=761 steps=69 speed=0.0 pwm=0.0 volt=9.212036 mode=4
tgy=759 gy=-0.20235495
tstate=759 phi=-0.2118497169997652 phidot=-0.2023661989726142
tgy=768 gy=0.92774576
tstate=768 phi=-0.2129368511590786 phidot=0.9277320288064306
tard=774 steps=69 speed=0.0 pwm=0.0 volt=9.212036 mode=4
tzacc=773 zacc=-0.21068975
tgy=777 gy=0.5074705
tstate=777 phi=-0.20532339701363472 phidot=0.5074741703900456
tard=787 steps=69 speed=0.0 pwm=0.0 volt=9.223938 mode=4
tgy=786 gy=-0.8828589
tstate=786 phi=-0.20242213030716497 phidot=-0.8828442797155386
tzacc=793 zacc=10.821792
tgy=796 gy=-0.59453046
tstate=796 phi=-0.21136460806130355 phidot=-0.5945343972498571
tard=799 steps=69 speed=0.0 pwm=0.0 volt=9.200134 mode=4
tgy=805 gy=0.43783185
tstate=805 phi=-0.21601522561328457 phidot=0.43781920868222823
tard=811 steps=69 speed=0.0 pwm=0.0 volt=9.188232 mode=4
tzacc=814 zacc=4.213795
tgy=814 gy=0.49769664
tstate=814 phi=-0.21234835066868082 phidot=0.4976949074728558
tard=825 steps=69 speed=0.0 pwm=0.0 volt=9.188232 mode=4
tgy=823 gy=0.11407325
tstate=823 phi=-0.20858675710832564 phidot=0.11407651076677183
tgy=833 gy=0.09330383
tstate=833 phi=-0.2078733648588159 phidot=0.09330301011024447
tard=837 steps=69 speed=0.0 pwm=0.0 volt=9.188232 mode=4
tzacc=834 zacc=3.6774938
tgy=842 gy=0.09086037
tstate=842 phi=-0.20735313663049953 phidot=0.09085936792780513
tard=850 steps=69 speed=0.0 pwm=0.0 volt=9.188232 mode=4
tgy=851 gy=0.09574729
tstate=851 phi=-0.2068452540513779 phidot=0.0957462134395951
tzacc=855 zacc=2.4899697
tard=862 steps=69 speed=0.0 pwm=0.0 volt=9.200134 mode=4
tgy=861 gy=0.029773843
tstate=861 phi=-0.20635695641816812 phidot=0.029773487713732873
tgy=870 gy=-0.102173045
tstate=870 phi=-0.20654295255536306 phidot=-0.10217258532562684
tard=875 steps=69 speed=0.0 pwm=0.0 volt=9.188232 mode=4
tzacc=875 zacc=3.3135753
tgy=879 gy=-0.047195178
tstate=879 phi=-0.207712024411484 phidot=-0.04719681828563868
tard=889 steps=69 speed=0.0 pwm=0.0 volt=9.200134 mode=4
tgy=888 gy=0.059095375
tstate=888 phi=-0.20832944379884322 phidot=0.05909315429952591
tzacc=895 zacc=2.7389667
tgy=898 gy=0.07131268
tstate=898 phi=-0.20812083778151588 phidot=0.0713115284034854
tard=901 steps=69 speed=0.0 pwm=0.0 volt=9.212036 mode=4
tgy=907 gy=-0.02642576
tstate=907 phi=-0.2078989771886664 phidot=-0.02642569184058423
tard=913 steps=69 speed=0.0 pwm=0.0 volt=9.212036 mode=4
tzacc=916 zacc=2.9113493
tgy=916 gy=-0.05574729
tstate=916 phi=-0.20847768512720208 phidot=-0.05574798933778808
tard=926 steps=69 speed=0.0 pwm=0.0 volt=9.212036 mode=4
tgy=925 gy=-0.03131268
tstate=925 phi=-0.20925784943170206 phidot=-0.03131398838371194
tgy=935 gy=-0.039864793
tstate=935 phi=-0.20997317897010256 phidot=-0.039865742978949154
tard=939 steps=69 speed=0.0 pwm=0.0 volt=9.200134 mode=4
tzacc=936 zacc=3.5051112
tgy=944 gy=-0.03375614
tstate=944 phi=-0.21063120889797596 phidot=-0.03375724873373229
tard=951 steps=69 speed=0.0 pwm=0.0 volt=9.212036 mode=4
tgy=953 gy=0.0041175038
tstate=953 phi=-0.21119579344389136 phidot=0.004116036220486757
tzacc=956 zacc=3.9073372
tard=964 steps=69 speed=0.0 pwm=0.0 volt=9.200134 mode=4
tgy=963 gy=0.023665192
tstate=963 phi=-0.21152257242782868 phidot=0.02366394969200948
tgy=972 gy=0.007782695
tstate=972 phi=-0.2116342539793233 phidot=0.007781827210888964
tard=976 steps=69 speed=0.0 pwm=0.0 volt=9.212036 mode=4
tzacc=977 zacc=3.7349546
tgy=981 gy=0.005339233
tstate=981 phi=-0.21187129818653683 phidot=0.005338213890062601
tard=990 steps=69 speed=0.0 pwm=0.0 volt=9.212036 mode=4
tgy=990 gy=-0.009321533
tstate=990 phi=-0.21214482736450616 phidot=-0.00932241664085122
tzacc=997 zacc=3.4284968
tgy=1000 gy=-0.0068780705
tstate=1000 phi=-0.21262276482272996 phidot=-0.006879144775635879
tard=1004 steps=69 speed=0.0 pwm=0.0 volt=9.212036 mode=4
tgy=1009 gy=4.523117E-4
tstate=1009 phi=-0.21297684243955098 phidot=4.5117756410363585E-4
tard=1016 steps=69 speed=0.0 pwm=0.0 volt=9.212036 mode=4
tzacc=1017 zacc=3.4859576
tgy=1018 gy=0.005339233
tstate=1018 phi=-0.21326731117419953 phidot=0.00533812488440695
tard=1029 steps=69 speed=0.0 pwm=0.0 volt=9.223938 mode=4
tgy=1027 gy=0.007782695
tstate=1027 phi=-0.21351612235934392 phidot=0.007781612649359629
tgy=1037 gy=0.001674043
tstate=1037 phi=-0.21383106295349877 phidot=0.0016730487665946314
tard=1041 steps=69 speed=0.0 pwm=0.0 volt=9.212036 mode=4
tzacc=1038 zacc=3.6391866
tgy=1046 gy=0.0065609645
tstate=1046 phi=-0.2141076188745658 phidot=0.006559852013225495
tard=1053 steps=69 speed=0.0 pwm=0.0 volt=9.212036 mode=4
tgy=1055 gy=-0.0032128803
tstate=1055 phi=-0.214359091303796 phidot=-0.003213829652584682
tzacc=1058 zacc=3.5242648
tard=1066 steps=69 speed=0.0 pwm=0.0 volt=9.200134 mode=4
tgy=1065 gy=-0.005656341
tstate=1065 phi=-0.2147763251570407 phidot=-0.005657376755158677
tgy=1074 gy=-7.694196E-4
tstate=1074 phi=-0.21511597135241198 phidot=-7.705369109038129E-4
tard=1080 steps=69 speed=0.0 pwm=0.0 volt=9.200134 mode=4
tzacc=1078 zacc=3.5817258
tgy=1083 gy=0.005339233
tstate=1083 phi=-0.2154090815326738 phidot=0.005338100620646713
tard=1092 steps=69 speed=0.0 pwm=0.0 volt=9.188232 mode=4
tgy=1092 gy=0.0028957725
tstate=1092 phi=-0.21565831117555853 phidot=0.002894734487433659
tzacc=1099 zacc=3.6008794
tgy=1102 gy=0.007782695
tstate=1102 phi=-0.21600063167272168 phidot=0.007781578980414497
tard=1105 steps=69 speed=0.0 pwm=0.0 volt=9.188232 mode=4
tgy=1111 gy=4.523117E-4
tstate=1111 phi=-0.21623300233786508 phidot=4.5132569346433005E-4
tard=1122 steps=69 speed=0.0 pwm=0.0 volt=9.176331 mode=4
tgy=1120 gy=-0.00443461
tstate=1120 phi=-0.2165269074017201 phidot=-0.004435624512627218
tzacc=1122 zacc=3.5625722
tgy=1130 gy=-0.001991149
tstate=1130 phi=-0.2169428632885528 phidot=-0.0019922447317004266
tard=1135 steps=69 speed=0.0 pwm=0.0 volt=9.188232 mode=4
tgy=1139 gy=4.523117E-4
tstate=1139 phi=-0.21724620207047282 phidot=4.5121121297655997E-4
tzacc=1142 zacc=3.620033
tard=1148 steps=69 speed=0.0 pwm=0.0 volt=9.212036 mode=4
tgy=1148 gy=0.001674043
tstate=1148 phi=-0.21752844610638294 phidot=0.0016729547812547596
tgy=1157 gy=-0.0032128803
tstate=1157 phi=-0.21780794646517243 phidot=-0.0032139014261731297
tard=1162 steps=69 speed=0.0 pwm=0.0 volt=9.200134 mode=4
tzacc=1163 zacc=3.715801
tgy=1166 gy=-0.00443461
tstate=1166 phi=-0.21812496358930333 phidot=-0.004435673460228981
tard=1175 steps=69 speed=0.0 pwm=0.0 volt=9.200134 mode=4
tgy=1176 gy=-0.005656341
tstate=1176 phi=-0.21854159983633276 phidot=-0.005657407656961114
tzacc=1183 zacc=3.2752678
tard=1187 steps=69 speed=0.0 pwm=0.0 volt=9.212036 mode=4
tgy=1185 gy=-0.00443461
tstate=1185 phi=-0.21887494452311546 phidot=-0.004435704534310386
tgy=1194 gy=4.523117E-4
tstate=1194 phi=-0.21919065086713183 phidot=4.5117423924448397E-4
tard=1200 steps=69 speed=0.0 pwm=0.0 volt=9.212036 mode=4
tzacc=1203 zacc=3.4859576
tgy=1204 gy=0.005339233
tstate=1204 phi=-0.2195459655889998 phidot=0.005338099856300738
tard=1212 steps=69 speed=0.0 pwm=0.0 volt=9.200134 mode=4
tgy=1213 gy=0.0065609645
tstate=1213 phi=-0.2197773925709821 phidot=0.006559865058821335
tard=1225 steps=69 speed=0.0 pwm=0.0 volt=9.200134 mode=4
tgy=1222 gy=0.005339233
tstate=1222 phi=-0.22000068587872815 phidot=0.005338160047207413
tzacc=1224 zacc=3.4284968
tgy=1231 gy=0.007782695
tstate=1231 phi=-0.22022797574112235 phidot=0.0077815794960102574
tard=1237 steps=69 speed=0.0 pwm=0.0 volt=9.212036 mode=4
tgy=1241 gy=-0.001991149
tstate=1241 phi=-0.22052918913630135 phidot=-0.0019921393357147515
tzacc=1244 zacc=3.6391866
tard=1249 steps=69 speed=0.0 pwm=0.0 volt=9.212036 mode=4
tgy=1250 gy=4.523117E-4
tstate=1250 phi=-0.2208200701400785 phidot=4.511935607464518E-4
tgy=1259 gy=0.0028957725
tstate=1259 phi=-0.2210879298969148 phidot=0.0028946529295933165
tard=1262 steps=69 speed=0.0 pwm=0.0 volt=9.200134 mode=4
tzacc=1264 zacc=3.6008794
tgy=1269 gy=4.523117E-4
tstate=1269 phi=-0.22142269785976637 phidot=4.51243077891364E-4
tard=1275 steps=69 speed=0.0 pwm=0.0 volt=9.200134 mode=4
tgy=1278 gy=4.523117E-4
tstate=1278 phi=-0.22169238926750373 phidot=4.5121661995846385E-4
tard=1288 steps=69 speed=0.0 pwm=0.0 volt=9.212036 mode=4
tzacc=1285 zacc=3.6008794
tgy=1287 gy=-7.694196E-4
tstate=1287 phi=-0.22196311801643825 phidot=-7.705023111433118E-4
tgy=1296 gy=0.010226156
tstate=1296 phi=-0.2222227233061584 phidot=0.010224934544638381
tard=1300 steps=69 speed=0.0 pwm=0.0 volt=9.212036 mode=4
tzacc=1305 zacc=3.6583402
tgy=1306 gy=0.005339233
tstate=1306 phi=-0.22248401577798238 phidot=0.005338183832438337
tard=1312 steps=69 speed=0.0 pwm=0.0 volt=9.200134 mode=4
tgy=1315 gy=0.005339233
tstate=1315 phi=-0.22270522908694856 phidot=0.00533813300395769
tard=1325 steps=69 speed=0.0 pwm=0.0 volt=9.188232 mode=4
tgy=1324 gy=-0.00443461
tstate=1324 phi=-0.22294260551347753 phidot=-0.004435601466805758
tzacc=1325 zacc=3.6583402
tgy=1333 gy=-0.005656341
tstate=1333 phi=-0.22325166385104564 phidot=-0.005657430061649177
tard=1338 steps=69 speed=0.0 pwm=0.0 volt=9.188232 mode=4
tgy=1343 gy=4.523117E-4
tstate=1343 phi=-0.22364731598328746 phidot=4.5114592196106307E-4
tzacc=1346 zacc=3.6583402
tard=1351 steps=69 speed=0.0 pwm=0.0 volt=9.200134 mode=4
tgy=1352 gy=0.0041175038
tstate=1352 phi=-0.2239013310906573 phidot=0.0041163566255557615
tgy=1361 gy=0.010226156
tstate=1361 phi=-0.2241167194457869 phidot=0.010224979926351227
tard=1364 steps=69 speed=0.0 pwm=0.0 volt=9.200134 mode=4
tzacc=1366 zacc=3.5242648
tgy=1370 gy=4.523117E-4
tstate=1370 phi=-0.22430518504620744 phidot=4.513131885747895E-4
tard=1377 steps=69 speed=0.0 pwm=0.0 volt=9.188232 mode=4
tgy=1380 gy=0.005339233
tstate=1380 phi=-0.22463669013004947 phidot=0.005338074723275563
tard=1390 steps=69 speed=0.0 pwm=0.0 volt=9.200134 mode=4
tzacc=1386 zacc=3.6966474
tgy=1389 gy=-0.0032128803
tstate=1389 phi=-0.22486461194894947 phidot=-0.0032138952304702623
tgy=1398 gy=-0.005656341
tstate=1398 phi=-0.22515685783877237 phidot=-0.005657425788289219
tard=1402 steps=69 speed=0.0 pwm=0.0 volt=9.212036 mode=4
tzacc=1407 zacc=3.4476504
tgy=1408 gy=-7.694196E-4
tstate=1408 phi=-0.22554539036387952 phidot=-7.70582414006668E-4
tard=1414 steps=69 speed=0.0 pwm=0.0 volt=9.212036 mode=4
tgy=1417 gy=0.0028957725
tstate=1417 phi=-0.2258015984935455 phidot=0.0028946159610450106
tard=1428 steps=69 speed=0.0 pwm=0.0 volt=9.212036 mode=4
tgy=1426 gy=0.007782695
tstate=1426 phi=-0.2260212385883538 phidot=0.007781523509805918
tzacc=1427 zacc=3.5434184
tgy=1435 gy=0.0041175038
tstate=1435 phi=-0.22621231901978683 phidot=0.004116427317132812
tard=1440 steps=69 speed=0.0 pwm=0.0 volt=9.212036 mode=4
tgy=1445 gy=0.0028957725
tstate=1445 phi=-0.22650966313610743 phidot=0.002894666339522012
tzacc=1447 zacc=3.5434184
tard=1452 steps=69 speed=0.0 pwm=0.0 volt=9.200134 mode=4
tgy=1454 gy=0.0028957725
tstate=1454 phi=-0.2267348823826853 phidot=0.0028946524051297884
tgy=1463 gy=-7.694196E-4
tstate=1463 phi=-0.2269661950514565 phidot=-7.704996555463611E-4
tard=1466 steps=69 speed=0.0 pwm=0.0 volt=9.212036 mode=4
tzacc=1468 zacc=3.6008794
tgy=1472 gy=0.001674043
tstate=1472 phi=-0.22721699428228911 phidot=0.0016728932396153917
tard=1478 steps=69 speed=0.0 pwm=0.0 volt=9.212036 mode=4
tgy=1482 gy=0.0028957725
tstate=1482 phi=-0.22752845676365865 phidot=0.0028946366879450264
tard=1492 steps=69 speed=0.0 pwm=0.0 volt=9.212036 mode=4
tzacc=1488 zacc=3.6774938
tgy=1491 gy=0.001674043
tstate=1491 phi=-0.2277510601839936 phidot=0.0016729316544105838
tgy=1500 gy=-0.0032128803
tstate=1500 phi=-0.22799096503714933 phidot=-0.0032139517262765177
tard=1504 steps=69 speed=0.0 pwm=0.0 volt=9.200134 mode=4
tzacc=1509 zacc=3.5242648
tgy=1510 gy=4.523117E-4
tstate=1510 phi=-0.22834194228344856 phidot=4.5114736411848433E-4
tard=1517 steps=69 speed=0.0 pwm=0.0 volt=9.212036 mode=4
tgy=1519 gy=0.005339233
tstate=1519 phi=-0.22856986163357015 phidot=0.005338049295882441
tard=1531 steps=69 speed=0.0 pwm=0.0 volt=9.212036 mode=4
tgy=1528 gy=0.007782695
tstate=1528 phi=-0.2287576213365517 phidot=0.00778153736189538
tzacc=1529 zacc=3.620033
tard=1544 steps=69 speed=0.0 pwm=0.0 volt=9.212036 mode=4
tgy=1537 gy=0.007782695
tstate=1537 phi=-0.22892722765216153 phidot=0.007781563893397583
tgy=1547 gy=-7.694196E-4
tstate=1547 phi=-0.22918848983614556 phidot=-7.704649873968988E-4
tzacc=1552 zacc=3.6008794
tard=1560 steps=69 speed=0.0 pwm=0.0 volt=9.223938 mode=4
tgy=1556 gy=0.0065609645
tstate=1556 phi=-0.22941631832866236 phidot=0.006559749025091946
tgy=1565 gy=0.0041175038
tstate=1565 phi=-0.22959802987160813 phidot=0.0041163969081560725
tard=1576 steps=69 speed=0.0 pwm=0.0 volt=9.212036 mode=4
tzacc=1572 zacc=3.6008794
tgy=1574 gy=0.001674043
tstate=1574 phi=-0.2298004007721818 phidot=0.001672935216351562
tgy=1584 gy=0.0041175038
tstate=1584 phi=-0.23009307397363063 phidot=0.004116342990739749
tard=1588 steps=69 speed=0.0 pwm=0.0 volt=9.200134 mode=4
tzacc=1593 zacc=3.5051112
tgy=1593 gy=0.007782695
tstate=1593 phi=-0.23027907254392094 phidot=0.007781516162343682
tard=1601 steps=69 speed=0.0 pwm=0.0 volt=9.200134 mode=4
tgy=1602 gy=-0.001991149
tstate=1602 phi=-0.23046073748419507 phidot=-0.0019921779107020116
tard=1614 steps=69 speed=0.0 pwm=0.0 volt=9.200134 mode=4
tgy=1612 gy=0.001674043
tstate=1612 phi=-0.23078255886366758 phidot=0.0016728665895312106
tzacc=1613 zacc=3.4859576
tgy=1621 gy=-0.0032128803
tstate=1621 phi=-0.23100548802962975 phidot=-0.00321396661748527
tard=1627 steps=69 speed=0.0 pwm=0.0 volt=9.188232 mode=4
tgy=1630 gy=0.0065609645
tstate=1630 phi=-0.2312375804809975 phidot=0.006559712659382239
tzacc=1633 zacc=3.620033
tard=1640 steps=69 speed=0.0 pwm=0.0 volt=9.212036 mode=4
tgy=1639 gy=0.0028957725
tstate=1639 phi=-0.23141118312454856 phidot=0.002894670358012816
tgy=1649 gy=4.523117E-4
tstate=1649 phi=-0.2316920314687016 phidot=4.511923753046654E-4
tard=1652 steps=69 speed=0.0 pwm=0.0 volt=9.188232 mode=4
tzacc=1654 zacc=3.5242648
tgy=1658 gy=0.005339233
tstate=1658 phi=-0.23189770953514185 phidot=0.00533803285821309
tard=1664 steps=69 speed=0.0 pwm=0.0 volt=9.212036 mode=4
tgy=1667 gy=0.009004425
tstate=1667 phi=-0.23206082881820386 phidot=0.009003237707457853
tard=1679 steps=69 speed=0.0 pwm=0.0 volt=9.188232 mode=4
tgy=1676 gy=0.0041175038
tstate=1676 phi=-0.23220972007774882 phidot=0.004116411376794457
tzacc=1677 zacc=3.5625722
tgy=1686 gy=-0.0032128803
tstate=1686 phi=-0.232483793107358 phidot=-0.0032139542547045957
tard=1691 steps=69 speed=0.0 pwm=0.0 volt=9.200134 mode=4
tgy=1695 gy=-7.694196E-4
tstate=1695 phi=-0.23272204073794697 phidot=-7.705965089555983E-4
tzacc=1697 zacc=3.5051112
tard=1704 steps=69 speed=0.0 pwm=0.0 volt=9.188232 mode=4
tgy=1704 gy=0.0028957725
tstate=1704 phi=-0.2329339285139425 phidot=0.002894580730166685
tgy=1714 gy=0.005339233
tstate=1714 phi=-0.23319201967433964 phidot=0.005338057101866245
tard=1717 steps=69 speed=0.0 pwm=0.0 volt=9.212036 mode=4
tzacc=1718 zacc=3.5817258
tgy=1723 gy=0.001674043
tstate=1723 phi=-0.23336369267944077 phidot=0.0016729312988873618
tard=1731 steps=69 speed=0.0 pwm=0.0 volt=9.212036 mode=4
tgy=1732 gy=0.0041175038
tstate=1732 phi=-0.2335518535923894 phidot=0.0041163226411261855
tzacc=1738 zacc=3.5817258
tard=1742 steps=69 speed=0.0 pwm=0.0 volt=9.200134 mode=4
tgy=1741 gy=4.523117E-4
tstate=1741 phi=-0.2337317028965401 phidot=4.5119820301633973E-4
tgy=1751 gy=-0.00443461
tstate=1751 phi=-0.23402580056638161 phidot=-0.004435715901427717
tard=1753 steps=69 speed=0.0 pwm=0.0 volt=9.223938 mode=4
tzacc=1758 zacc=3.620033
tgy=1760 gy=-7.694196E-4
tstate=1760 phi=-0.23426109054330052 phidot=-7.70617796056805E-4
tard=1764 steps=69 speed=0.0 pwm=0.0 volt=9.200134 mode=4
tgy=1769 gy=0.007782695
tstate=1769 phi=-0.2344495374550685 phidot=0.0077814408235948734
tard=1777 steps=69 speed=0.0 pwm=0.0 volt=9.200134 mode=4
tzacc=1778 zacc=3.4859576
tgy=1778 gy=0.0065609645
tstate=1778 phi=-0.23458435444597964 phidot=0.006559819286274693
tgy=1788 gy=0.0041175038
tstate=1788 phi=-0.23480484245000235 phidot=0.004116368968457365
tard=1790 steps=69 speed=0.0 pwm=0.0 volt=9.212036 mode=4
tgy=1797 gy=0.0041175038
tstate=1797 phi=-0.23496619682682776 phidot=0.004116343023585378
tzacc=1799 zacc=3.5051112
tard=1803 steps=69 speed=0.0 pwm=0.0 volt=9.200134 mode=4
tgy=1806 gy=-7.694196E-4
tstate=1806 phi=-0.2351387350589967 phidot=-7.705263404232388E-4
tard=1815 steps=69 speed=0.0 pwm=0.0 volt=9.212036 mode=4
tgy=1816 gy=0.0028957725
tstate=1816 phi=-0.23541139330383976 phidot=0.0028945731472021508
tzacc=1819 zacc=3.6966474
tgy=1825 gy=-0.001991149
tstate=1825 phi=-0.23559181389608097 phidot=-0.0019922579942700247
tard=1829 steps=69 speed=0.0 pwm=0.0 volt=9.188232 mode=4
tgy=1834 gy=0.0028957725
tstate=1834 phi=-0.23578882991101147 phidot=0.0028945529444323326
tard=1841 steps=69 speed=0.0 pwm=0.0 volt=9.200134 mode=4
tzacc=1840 zacc=3.5625722
tgy=1843 gy=-0.005656341
tstate=1843 phi=-0.235976144700649 phidot=-0.005657410810861935
tard=1854 steps=69 speed=0.0 pwm=0.0 volt=9.212036 mode=4
tgy=1853 gy=4.523117E-4
tstate=1853 phi=-0.23628400146250653 phidot=4.510835310716499E-4
tzacc=1860 zacc=3.715801
tgy=1862 gy=0.001674043
tstate=1862 phi=-0.2364638855048492 phidot=0.0016728612466908321
tard=1866 steps=69 speed=0.0 pwm=0.0 volt=9.188232 mode=4
tgy=1871 gy=-0.0032128803
tstate=1871 phi=-0.23664782356832811 phidot=-0.003213994488317204
tard=1879 steps=69 speed=0.0 pwm=0.0 volt=9.212036 mode=4
tzacc=1880 zacc=3.4093432
tgy=1880 gy=4.523117E-4
tstate=1880 phi=-0.23685085250908158 phidot=4.511006895136782E-4
tgy=1890 gy=-0.001991149
tstate=1890 phi=-0.23711388895011748 phidot=-0.0019922950825462388
tard=1892 steps=69 speed=0.0 pwm=0.0 volt=9.200134 mode=4
tgy=1899 gy=0.001674043
tstate=1899 phi=-0.2373024275305868 phidot=0.0016728297365845857
tzacc=1900 zacc=3.5242648
tard=1905 steps=69 speed=0.0 pwm=0.0 volt=9.200134 mode=4
tgy=1908 gy=0.0028957725
tstate=1908 phi=-0.23746318776766578 phidot=0.002894585726118809
tard=1917 steps=69 speed=0.0 pwm=0.0 volt=9.200134 mode=4
tgy=1918 gy=0.0041175038
tstate=1918 phi=-0.23768626510230728 phidot=0.0041163178104622195
tzacc=1921 zacc=3.5625722
tgy=1927 gy=-0.0032128803
tstate=1927 phi=-0.2378456773247448 phidot=-0.003213973036279183
tard=1931 steps=69 speed=0.0 pwm=0.0 volt=9.212036 mode=4
tgy=1936 gy=0.005339233
tstate=1936 phi=-0.23802443727796188 phidot=0.005337961541564656
tard=1943 steps=69 speed=0.0 pwm=0.0 volt=9.212036 mode=4
tzacc=1941 zacc=3.4476504
tgy=1945 gy=0.0028957725
tstate=1945 phi=-0.238155950409978 phidot=0.0028946233569678154
tard=1956 steps=69 speed=0.0 pwm=0.0 volt=9.200134 mode=4
tgy=1955 gy=0.0028957725
tstate=1955 phi=-0.23837516927100869 phidot=0.0028945954448646866
tzacc=1962 zacc=3.8307228
tgy=1964 gy=-0.00443461
tstate=1964 phi=-0.2385393373660311 phidot=-0.004435705877963991
tard=1968 steps=69 speed=0.0 pwm=0.0 volt=9.212036 mode=4
tgy=1973 gy=0.005339233
tstate=1973 phi=-0.23871818565176037 phidot=0.0053379444302209395
tard=1981 steps=69 speed=0.0 pwm=0.0 volt=9.212036 mode=4
tzacc=1982 zacc=3.6391866
tgy=1982 gy=0.005339233
tstate=1982 phi=-0.238835944414605 phidot=0.005338053322304623
tgy=1992 gy=0.0041175038
tstate=1992 phi=-0.23902694609007677 phidot=0.004116335811939847
tard=1994 steps=69 speed=0.0 pwm=0.0 volt=9.200134 mode=4
tgy=2001 gy=0.0028957725
tstate=2001 phi=-0.23915569115694893 phidot=0.0028946047353498455
tzacc=2002 zacc=3.466804
tard=2007 steps=69 speed=0.0 pwm=0.0 volt=9.212036 mode=4
tgy=2010 gy=-0.0032128803
tstate=2010 phi=-0.23930833768637294 phidot=-0.0032139939455042704
tard=2019 steps=69 speed=0.0 pwm=0.0 volt=9.200134 mode=4
tgy=2020 gy=0.001674043
tstate=2020 phi=-0.23956081826873457 phidot=0.001672810937410299
tzacc=2023 zacc=3.5051112
tgy=2029 gy=0.0028957725
tstate=2029 phi=-0.23969898710491638 phidot=0.002894574681997261
tard=2033 steps=69 speed=0.0 pwm=0.0 volt=9.200134 mode=4
tgy=2038 gy=4.523117E-4
tstate=2038 phi=-0.2398355880507501 phidot=4.511543676960633E-4
tard=2045 steps=69 speed=0.0 pwm=0.0 volt=9.212036 mode=4
tzacc=2043 zacc=3.5051112
tgy=2047 gy=0.001674043
tstate=2047 phi=-0.2399813583035707 phidot=0.0016728438726438394
tard=2059 steps=69 speed=0.0 pwm=0.0 volt=9.212036 mode=4
tgy=2057 gy=-7.694196E-4
tstate=2057 phi=-0.24019956894227534 phidot=-7.705809049383533E-4
tzacc=2063 zacc=3.715801
tgy=2066 gy=-0.00443461
tstate=2066 phi=-0.24036769558341511 phidot=-0.004435755962591589
tard=2071 steps=69 speed=0.0 pwm=0.0 volt=9.212036 mode=4
tgy=2075 gy=-0.001991149
tstate=2075 phi=-0.24054823033188363 phidot=-0.001992364583234152
tard=2086 steps=69 speed=0.0 pwm=0.0 volt=9.200134 mode=4
tzacc=2084 zacc=3.466804
tgy=2084 gy=4.523117E-4
tstate=2084 phi=-0.24070508115865968 phidot=4.510953346054114E-4
tgy=2094 gy=0.0065609645
tstate=2094 phi=-0.24090123480187156 phidot=0.006559713382827237
tard=2098 steps=69 speed=0.0 pwm=0.0 volt=9.212036 mode=4
tgy=2103 gy=4.523117E-4
tstate=2103 phi=-0.24100435054546135 phidot=4.5118964738262435E-4
tzacc=2104 zacc=3.6774938
tard=2111 steps=69 speed=0.0 pwm=0.0 volt=9.200134 mode=4
tgy=2112 gy=4.523117E-4
tstate=2112 phi=-0.2411414019796255 phidot=4.5112054939086543E-4
tgy=2121 gy=-0.0032128803
tstate=2121 phi=-0.24128843106592315 phidot=-0.003214031095577788
tard=2124 steps=69 speed=0.0 pwm=0.0 volt=9.200134 mode=4
tzacc=2125 zacc=3.5242648
tgy=2131 gy=0.001674043
tstate=2131 phi=-0.24151685905046802 phidot=0.0016728012794800379
tard=2138 steps=69 speed=0.0 pwm=0.0 volt=9.188232 mode=4
tgy=2140 gy=0.001674043
tstate=2140 phi=-0.24163746648401435 phidot=0.0016728493757193347
tzacc=2145 zacc=3.6008794
tard=2151 steps=69 speed=0.0 pwm=0.0 volt=9.200134 mode=4
tgy=2149 gy=-7.694196E-4
tstate=2149 phi=-0.24176426417236432 phidot=-7.705864371072846E-4
tgy=2159 gy=0.0041175038
tstate=2159 phi=-0.24196201135984138 phidot=0.0041162597688953195
tard=2163 steps=69 speed=0.0 pwm=0.0 volt=9.188232 mode=4
tzacc=2165 zacc=3.6774938
tgy=2168 gy=0.005339233
tstate=2168 phi=-0.24205109518987908 phidot=0.005338023756830401
tard=2175 steps=69 speed=0.0 pwm=0.0 volt=9.200134 mode=4
tgy=2177 gy=0.0041175038
tstate=2177 phi=-0.24213546465753916 phidot=0.004116321294052497
tard=2189 steps=69 speed=0.0 pwm=0.0 volt=9.188232 mode=4
tzacc=2186 zacc=3.6391866
tgy=2186 gy=-7.694196E-4
tstate=2186 phi=-0.24224122175656027 phidot=-7.705614239723185E-4
tgy=2196 gy=-0.0068780705
tstate=2196 phi=-0.242467194768974 phidot=-0.006879205956452791
tard=2201 steps=69 speed=0.0 pwm=0.0 volt=9.200134 mode=4
tgy=2205 gy=4.523117E-4
tstate=2205 phi=-0.24262722689524463 phidot=4.510311029490982E-4
tzacc=2206 zacc=3.5434184
tard=2216 steps=69 speed=0.0 pwm=0.0 volt=9.212036 mode=4
tgy=2214 gy=-0.001991149
tstate=2214 phi=-0.24275239728564701 phidot=-0.001992320734439626
tgy=2223 gy=4.523117E-4
tstate=2223 phi=-0.24288127140166432 phidot=4.5108458562979903E-4
tard=2228 steps=69 speed=0.0 pwm=0.0 volt=9.223938 mode=4
tzacc=2229 zacc=3.5625722
tgy=2233 gy=0.001674043
tstate=2233 phi=-0.2430625067105828 phidot=0.0016728305785222025
tard=2240 steps=69 speed=0.0 pwm=0.0 volt=9.200134 mode=4
tgy=2242 gy=0.0028957725
tstate=2242 phi=-0.24315861750370416 phidot=0.002894557593094496
tzacc=2249 zacc=3.6391866
tgy=2251 gy=-0.0068780705
tstate=2251 phi=-0.24327976729349476 phidot=-0.00687916261853716
tard=2254 steps=69 speed=0.0 pwm=0.0 volt=9.212036 mode=4
tgy=2261 gy=-0.0032128803
tstate=2261 phi=-0.24351949028728506 phidot=-0.0032141195346112733
tard=2268 steps=69 speed=0.0 pwm=0.0 volt=9.212036 mode=4
tzacc=2270 zacc=3.5817258
tgy=2270 gy=0.001674043
tstate=2270 phi=-0.2436410439864336 phidot=0.0016727847409345326
tard=2280 steps=69 speed=0.0 pwm=0.0 volt=9.212036 mode=4
tgy=2279 gy=0.0028957725
tstate=2279 phi=-0.2437295899692507 phidot=0.0028945547722166592
tgy=2288 gy=0.0028957725
tstate=2288 phi=-0.24380961289585043 phidot=0.002894568061871286
tard=2293 steps=69 speed=0.0 pwm=0.0 volt=9.200134 mode=4
tzacc=2290 zacc=3.6008794
tgy=2298 gy=0.005339233
tstate=2298 phi=-0.24394749572884625 phidot=0.005338003998749244
tard=2305 steps=69 speed=0.0 pwm=0.0 volt=9.212036 mode=4
tgy=2307 gy=-0.001991149
tstate=2307 phi=-0.24402757998342822 phidot=-0.001992272294771086
tzacc=2310 zacc=3.5625722
tard=2318 steps=69 speed=0.0 pwm=0.0 volt=9.223938 mode=4
tgy=2316 gy=-7.694196E-4
tstate=2316 phi=-0.24414137299354557 phidot=-7.706392317196054E-4
tgy=2326 gy=0.0065609645
tstate=2326 phi=-0.2442918336489354 phidot=0.006559684332014218
tard=2330 steps=69 speed=0.0 pwm=0.0 volt=9.212036 mode=4
tzacc=2331 zacc=3.5817258
tgy=2335 gy=-7.694196E-4
tstate=2335 phi=-0.24435551501319727 phidot=-7.705444998081512E-4
tard=2342 steps=69 speed=0.0 pwm=0.0 volt=9.200134 mode=4
tgy=2344 gy=-7.694196E-4
tstate=2344 phi=-0.24445684223546496 phidot=-7.706271055440417E-4
tzacc=2351 zacc=3.4476504
tgy=2353 gy=0.001674043
tstate=2353 phi=-0.2445474487051297 phidot=0.0016728076330108088
tard=2356 steps=69 speed=0.0 pwm=0.0 volt=9.212036 mode=4
tgy=2363 gy=-0.001991149
tstate=2363 phi=-0.24470476289170098 phidot=-0.001992320250812696
tard=2368 steps=69 speed=0.0 pwm=0.0 volt=9.212036 mode=4
tzacc=2371 zacc=3.5817258
tgy=2372 gy=-0.0032128803
tstate=2372 phi=-0.2448157074980859 phidot=-0.0032140758875998793
tard=2381 steps=69 speed=0.0 pwm=0.0 volt=9.200134 mode=4
tgy=2381 gy=4.523117E-4
tstate=2381 phi=-0.24491776348843405 phidot=4.51060841446152E-4
tgy=2390 gy=-7.694196E-4
tstate=2390 phi=-0.24500311138726732 phidot=-7.706161207947371E-4
tard=2394 steps=69 speed=0.0 pwm=0.0 volt=9.200134 mode=4
tzacc=2392 zacc=3.5051112
tgy=2400 gy=-0.0032128803
tstate=2400 phi=-0.24517207697406865 phidot=-0.0032140661431102335
tard=2407 steps=69 speed=0.0 pwm=0.0 volt=9.200134 mode=4
tgy=2409 gy=-7.694196E-4
tstate=2409 phi=-0.2452726065323117 phidot=-7.706585047393827E-4
tzacc=2412 zacc=3.6774938
tard=2419 steps=69 speed=0.0 pwm=0.0 volt=9.200134 mode=4
tgy=2418 gy=-0.001991149
tstate=2418 phi=-0.24536309299704182 phidot=-0.0019923473142140907
tgy=2427 gy=0.0041175038
tstate=2427 phi=-0.24543497170412854 phidot=0.004116222889057428
tard=2432 steps=69 speed=0.0 pwm=0.0 volt=9.212036 mode=4
tzacc=2432 zacc=3.466804
tgy=2437 gy=0.0041175038
tstate=2437 phi=-0.24553745015242373 phidot=0.004116291356259766
tard=2444 steps=69 speed=0.0 pwm=0.0 volt=9.188232 mode=4
tgy=2446 gy=0.0028957725
tstate=2446 phi=-0.24557808355486876 phidot=0.002894573010928367
tzacc=2453 zacc=3.5434184
tgy=2455 gy=-7.694196E-4
tstate=2455 phi=-0.24563724172271598 phidot=-7.705918835762132E-4
tard=2458 steps=69 speed=0.0 pwm=0.0 volt=9.188232 mode=4
tgy=2465 gy=-0.005656341
tstate=2465 phi=-0.24580078826919857 phidot=-0.005657505313677549
tard=2470 steps=69 speed=0.0 pwm=0.0 volt=9.200134 mode=4
tzacc=2473 zacc=3.5434184
tgy=2474 gy=0.001674043
tstate=2474 phi=-0.2458901756898734 phidot=0.0016727462630280882
tard=2483 steps=69 speed=0.0 pwm=0.0 volt=9.212036 mode=4
tgy=2483 gy=4.523117E-4
tstate=2483 phi=-0.24594500098755692 phidot=4.5111050417177834E-4
tgy=2492 gy=-0.008099802
tstate=2492 phi=-0.24603766776420605 phidot=-0.0081009212037539
tard=2499 steps=69 speed=0.0 pwm=0.0 volt=9.200134 mode=4
tzacc=2493 zacc=3.5051112
tgy=2502 gy=4.523117E-4
tstate=2502 phi=-0.24621326185598488 phidot=4.5100988610680126E-4
tard=2512 steps=69 speed=0.0 pwm=0.0 volt=9.200134 mode=4
tgy=2511 gy=-0.0032128803
tstate=2511 phi=-0.2462827844395939 phidot=-0.003214055766826776
tzacc=2514 zacc=3.5434184
tard=2526 steps=69 speed=0.0 pwm=0.0 volt=9.212036 mode=4
tgy=2520 gy=0.001674043
tstate=2520 phi=-0.24634946561812401 phidot=0.0016727713631833896
tgy=2530 gy=0.001674043
tstate=2530 phi=-0.2464544380225146 phidot=0.001672826141484049
tard=2542 steps=69 speed=0.0 pwm=0.0 volt=9.212036 mode=4
tzacc=2534 zacc=3.4859576
tgy=2539 gy=4.523117E-4
tstate=2539 phi=-0.24649730803586864 phidot=4.5110777690166026E-4
tgy=2548 gy=4.523117E-4
tstate=2548 phi=-0.24654436786706718 phidot=4.510938600904013E-4
tard=2559 steps=69 speed=0.0 pwm=0.0 volt=9.200134 mode=4
tzacc=2555 zacc=3.5625722
tgy=2557 gy=0.0041175038
tstate=2557 phi=-0.24657469912383873 phidot=0.004116244628043789
tgy=2567 gy=0.010226156
tstate=2567 phi=-0.2466216009100907 phidot=0.010224876170396996
tard=2573 steps=69 speed=0.0 pwm=0.0 volt=9.200134 mode=4
tzacc=2575 zacc=3.6774938
tgy=2576 gy=4.523117E-4
tstate=2576 phi=-0.24661459419988876 phidot=4.5120298828664474E-4
tard=2586 steps=69 speed=0.0 pwm=0.0 volt=9.212036 mode=4
tgy=2585 gy=-0.009321533
tstate=2585 phi=-0.246693734802642 phidot=-0.009322642036932352
tgy=2594 gy=-0.001991149
tstate=2594 phi=-0.24678854487975066 phidot=-0.0019924501453315036
tard=2599 steps=69 speed=0.0 pwm=0.0 volt=9.212036 mode=4
tzacc=2595 zacc=3.715801
tgy=2604 gy=0.005339233
tstate=2604 phi=-0.24688209870785635 phidot=0.005337940267267791
tard=2611 steps=69 speed=0.0 pwm=0.0 volt=9.188232 mode=4
tgy=2613 gy=0.007782695
tstate=2613 phi=-0.24686090483638765 phidot=0.007781447938047886
tzacc=2616 zacc=3.5625722
tard=2624 steps=69 speed=0.0 pwm=0.0 volt=9.200134 mode=4
tgy=2622 gy=0.0028957725
tstate=2622 phi=-0.24684640815804093 phidot=0.0028946077990213287
tgy=2631 gy=0.0065609645
tstate=2631 phi=-0.2468381439704041 phidot=0.006559704020727156
tard=2637 steps=69 speed=0.0 pwm=0.0 volt=9.200134 mode=4
tzacc=2636 zacc=3.620033
tgy=2641 gy=0.0028957725
tstate=2641 phi=-0.24688310009666178 phidot=0.0028945903686903723
tard=2650 steps=69 speed=0.0 pwm=0.0 volt=9.212036 mode=4
tgy=2650 gy=4.523117E-4
tstate=2650 phi=-0.24689630233376772 phidot=4.511194909074534E-4
tzacc=2656 zacc=3.5625722
tgy=2659 gy=-0.009321533
tstate=2659 phi=-0.24696077632687594 phidot=-0.00932264335694008
tard=2663 steps=69 speed=0.0 pwm=0.0 volt=9.188232 mode=4
tgy=2669 gy=0.001674043
tstate=2669 phi=-0.24709516335581233 phidot=0.0016727121862575578
tard=2676 steps=69 speed=0.0 pwm=0.0 volt=9.188232 mode=4
tzacc=2677 zacc=3.6008794
tgy=2678 gy=4.523117E-4
tstate=2678 phi=-0.247108083679802 phidot=4.511047586510525E-4
tard=2688 steps=69 speed=0.0 pwm=0.0 volt=9.200134 mode=4
tgy=2687 gy=-0.00443461
tstate=2687 phi=-0.24714588787647318 phidot=-0.0044357757600263364
tgy=2696 gy=4.523117E-4
tstate=2696 phi=-0.24718351579880682 phidot=4.510359654342766E-4
tard=2701 steps=69 speed=0.0 pwm=0.0 volt=9.188232 mode=4
tzacc=2697 zacc=3.5051112
tgy=2706 gy=-0.0068780705
tstate=2706 phi=-0.24729014881812755 phidot=-0.0068792174597758216
tard=2713 steps=69 speed=0.0 pwm=0.0 volt=9.200134 mode=4
tgy=2715 gy=0.0028957725
tstate=2715 phi=-0.24732394630923887 phidot=0.002894441227413863
tzacc=2717 zacc=3.5434184
tgy=2724 gy=0.0041175038
tstate=2724 phi=-0.24730526353524562 phidot=0.004116268387073713
tard=2727 steps=69 speed=0.0 pwm=0.0 volt=9.212036 mode=4
tgy=2733 gy=0.0065609645
tstate=2733 phi=-0.24726827629377598 phidot=0.006559715579763259
tzacc=2738 zacc=3.5051112
tard=2741 steps=69 speed=0.0 pwm=0.0 volt=9.200134 mode=4
tgy=2743 gy=-0.001991149
tstate=2743 phi=-0.24731083677334087 phidot=-0.0019922838764096923
tard=2757 steps=69 speed=0.0 pwm=0.0 volt=9.212036 mode=4
tgy=2752 gy=0.0041175038
tstate=2752 phi=-0.24730811337279554 phidot=0.00411621363723684
tzacc=2761 zacc=3.6583402
tgy=2761 gy=-0.001991149
tstate=2761 phi=-0.24730290452015521 phidot=-0.0019923021586592815
tard=2770 steps=69 speed=0.0 pwm=0.0 volt=9.212036 mode=4
tgy=2771 gy=0.0041175038
tstate=2771 phi=-0.24735885703413696 phidot=0.004116220812837565
tard=2783 steps=69 speed=0.0 pwm=0.0 volt=9.212036 mode=4
tgy=2780 gy=-0.001991149
tstate=2780 phi=-0.2473495963836051 phidot=-0.001992302389216924
tzacc=2782 zacc=3.5817258
tgy=2789 gy=-0.001991149
tstate=2789 phi=-0.24736586466909974 phidot=-0.001992370890584086
tard=2796 steps=69 speed=0.0 pwm=0.0 volt=9.212036 mode=4
tgy=2798 gy=-0.00443461
tstate=2798 phi=-0.2473912877521376 phidot=-0.004435804341344524
tzacc=2801 zacc=3.7924154
tard=2808 steps=69 speed=0.0 pwm=0.0 volt=9.212036 mode=4
tgy=2808 gy=0.001674043
tstate=2808 phi=-0.24746217479604565 phidot=0.0016727596148830293
tgy=2817 gy=0.001674043
tstate=2817 phi=-0.24743926895050639 phidot=0.0016728207167865244
tard=2819 steps=69 speed=0.0 pwm=0.0 volt=9.212036 mode=4
tzacc=2822 zacc=3.5242648
tgy=2826 gy=4.523117E-4
tstate=2826 phi=-0.24742005002899506 phidot=4.511032188853764E-4
tard=2830 steps=69 speed=0.0 pwm=0.0 volt=9.200134 mode=4
tgy=2835 gy=4.523117E-4
tstate=2835 phi=-0.24740428841554266 phidot=4.5108961239551104E-4
tard=2842 steps=69 speed=0.0 pwm=0.0 volt=9.223938 mode=4
tzacc=2842 zacc=3.7349546
tgy=2845 gy=-0.0032128803
tstate=2845 phi=-0.24746207868675785 phidot=-0.003214065139400313
tard=2853 steps=69 speed=0.0 pwm=0.0 volt=9.200134 mode=4
tgy=2854 gy=0.0041175038
tstate=2854 phi=-0.24744090488752826 phidot=0.004116199296243711
tzacc=2862 zacc=3.5625722
tard=2866 steps=69 speed=0.0 pwm=0.0 volt=9.200134 mode=4
tgy=2863 gy=0.0065609645
tstate=2863 phi=-0.24737457207918553 phidot=0.006559715053934337
tgy=2872 gy=-7.694196E-4
tstate=2872 phi=-0.24733007287777437 phidot=-7.705591925279975E-4
tard=2879 steps=69 speed=0.0 pwm=0.0 volt=9.200134 mode=4
tgy=2882 gy=-0.00443461
tstate=2882 phi=-0.24739128588903486 phidot=-0.004435794201453097
tzacc=2883 zacc=3.4859576
tard=2892 steps=69 speed=0.0 pwm=0.0 volt=9.188232 mode=4
tgy=2891 gy=-7.694196E-4
tstate=2891 phi=-0.24738971728573111 phidot=-7.706826468378419E-4
tgy=2900 gy=4.523117E-4
tstate=2900 phi=-0.24736479335128161 phidot=4.5107612237384187E-4
tard=2905 steps=69 speed=0.0 pwm=0.0 volt=9.212036 mode=4
tzacc=2903 zacc=3.466804
tgy=2910 gy=0.001674043
tstate=2910 phi=-0.2473838594131258 phidot=0.0016728092426369495
tard=2917 steps=69 speed=0.0 pwm=0.0 volt=9.212036 mode=4
tgy=2919 gy=-7.694196E-4
tstate=2919 phi=-0.24735013137820086 phidot=-7.706140293922414E-4
tzacc=2923 zacc=3.5817258
tard=2930 steps=69 speed=0.0 pwm=0.0 volt=9.200134 mode=4
tgy=2928 gy=-0.0068780705
tstate=2928 phi=-0.24735407948988264 phidot=-0.006879223797177023
tgy=2937 gy=-0.0032128803
tstate=2937 phi=-0.24736409237842136 phidot=-0.0032141432133058895
tard=2942 steps=69 speed=0.0 pwm=0.0 volt=9.200134 mode=4
tzacc=2944 zacc=3.5051112
tgy=2947 gy=0.0028957725
tstate=2947 phi=-0.2473870269818269 phidot=0.0028944893976145247
tard=2955 steps=69 speed=0.0 pwm=0.0 volt=9.188232 mode=4
tgy=2956 gy=0.001674043
tstate=2956 phi=-0.2473284346484433 phidot=0.0016728349487465793
tard=2968 steps=69 speed=0.0 pwm=0.0 volt=9.188232 mode=4
tzacc=2964 zacc=3.5817258
tgy=2965 gy=0.0065609645
tstate=2965 phi=-0.24724919120250316 phidot=0.006559688305364464
tgy=2974 gy=0.0041175038
tstate=2974 phi=-0.2471598581332487 phidot=0.004116310159415201
tard=2980 steps=69 speed=0.0 pwm=0.0 volt=9.200134 mode=4
tgy=2984 gy=-0.001991149
tstate=2984 phi=-0.2471600282614232 phidot=-0.0019923077520126453
tzacc=2985 zacc=3.5242648
tard=2992 steps=69 speed=0.0 pwm=0.0 volt=9.200134 mode=4
tgy=2993 gy=-0.0032128803
tstate=2993 phi=-0.24713737693467766 phidot=-0.0032140873555270705
tard=3004 steps=69 speed=0.0 pwm=0.0 volt=9.212036 mode=4
tgy=3002 gy=-7.694196E-4
tstate=3002 phi=-0.2471057017993648 phidot=-7.706675596924895E-4
tzacc=3005 zacc=3.620033
tgy=3012 gy=0.0028957725
tstate=3012 phi=-0.24709962550865086 phidot=0.0028945154375022153
tard=3017 steps=69 speed=0.0 pwm=0.0 volt=9.200134 mode=4
tgy=3021 gy=0.0041175038
tstate=3021 phi=-0.24701474117532773 phidot=0.004116269822967353
tzacc=3025 zacc=3.620033
tard=3029 steps=69 speed=0.0 pwm=0.0 volt=9.212036 mode=4
tgy=3030 gy=4.523117E-4
tstate=3030 phi=-0.24694140729882522 phidot=4.5113295203196013E-4
tard=3041 steps=69 speed=0.0 pwm=0.0 volt=9.223938 mode=4
tgy=3039 gy=0.001674043
tstate=3039 phi=-0.24687467093624232 phidot=0.001672809822338625
tzacc=3046 zacc=3.620033
tgy=3049 gy=4.523117E-4
tstate=3049 phi=-0.24685954012217648 phidot=4.5110517711617615E-4
tard=3054 steps=69 speed=0.0 pwm=0.0 volt=9.188232 mode=4
tgy=3058 gy=0.0041175038
tstate=3058 phi=-0.24677612983131736 phidot=0.004116243633193517
tard=3069 steps=69 speed=0.0 pwm=0.0 volt=9.212036 mode=4
tzacc=3066 zacc=3.6966474
tgy=3067 gy=0.001674043
tstate=3067 phi=-0.24668883398493696 phidot=0.0016728517928645131
tgy=3076 gy=0.0065609645
tstate=3076 phi=-0.24658433360821197 phidot=0.006559691589672567
tard=3081 steps=69 speed=0.0 pwm=0.0 volt=9.200134 mode=4
tgy=3086 gy=0.009004425
tstate=3086 phi=-0.24649278627718785 phidot=0.00900318339367219
tzacc=3087 zacc=3.466804
tard=3093 steps=69 speed=0.0 pwm=0.0 volt=9.212036 mode=4
