param_alpha=7.0
param_noise_gyro=0.003
param_noise_pos=0.04
param_noise_v=0.9
param_pwm_noise=0.0
param_qf=0.0
param_zacc_noise=0.0
param_zacc_zero=0.0
tard=6 steps=0 speed=0.0 pwm=0.0 volt=3.7728882 mode=2
tard=24 steps=0 speed=0.0 pwm=0.0 volt=3.7728882 mode=2
tard=40 steps=0 speed=0.0 pwm=0.0 volt=3.7728882 mode=2
tard=55 steps=0 speed=0.0 pwm=0.0 volt=3.7728882 mode=2
tard=67 steps=0 speed=0.0 pwm=0.0 volt=3.7728882 mode=0
tard=85 steps=0 speed=0.0 pwm=0.0 volt=3.7609863 mode=0
tard=97 steps=0 speed=0.0 pwm=13.0 volt=3.7490845 mode=0
tard=109 steps=0 speed=0.0 pwm=24.0 volt=3.7490845 mode=0
tard=121 steps=0 speed=0.0 pwm=36.0 volt=3.7490845 mode=0
tard=134 steps=0 speed=0.0 pwm=48.0 volt=3.7371826 mode=0
tard=146 steps=0 speed=0.0 pwm=61.0 volt=3.7252808 mode=0
tard=160 steps=0 speed=0.0 pwm=75.0 volt=3.701477 mode=0
tard=171 steps=0 speed=0.0 pwm=86.0 volt=3.6895752 mode=0
tard=183 steps=0 speed=0.0 pwm=97.0 volt=3.6776733 mode=0
tard=197 steps=0 speed=0.0 pwm=111.0 volt=3.6657715 mode=0
tard=208 steps=0 speed=0.0 pwm=123.0 volt=3.6538696 mode=0
tard=220 steps=0 speed=0.0 pwm=134.0 volt=3.6538696 mode=0
tard=232 steps=0 speed=0.0 pwm=148.0 volt=3.630066 mode=0
tard=244 steps=1 speed=0.0 pwm=159.0 volt=3.618164 mode=0
tard=256 steps=1 speed=0.0 pwm=172.0 volt=3.618164 mode=0
tard=269 steps=1 speed=0.0 pwm=185.0 volt=3.5943604 mode=0
tard=281 steps=1 speed=0.0 pwm=196.0 volt=3.5824585 mode=0
tard=292 steps=1 speed=0.0 pwm=208.0 volt=3.5586548 mode=0
tard=306 steps=1 speed=0.0 pwm=219.0 volt=3.546753 mode=0
tard=318 steps=1 speed=0.0 pwm=233.0 volt=3.534851 mode=0
tard=329 steps=2 speed=0.0 pwm=242.0 volt=3.534851 mode=0
tard=344 steps=2 speed=0.0 pwm=255.0 volt=3.5110474 mode=0
tard=359 steps=2 speed=0.0 pwm=255.0 volt=3.5229492 mode=0
tard=374 steps=4 speed=47.0 pwm=255.0 volt=3.546753 mode=0
tard=385 steps=4 speed=47.0 pwm=255.0 volt=3.5586548 mode=0
tard=401 steps=5 speed=26.0 pwm=255.0 volt=3.5705566 mode=0
tard=419 steps=7 speed=69.0 pwm=255.0 volt=3.5824585 mode=0
tard=430 steps=8 speed=74.0 pwm=255.0 volt=3.5824585 mode=0
tard=441 steps=9 speed=82.0 pwm=255.0 volt=3.5824585 mode=0
tard=454 steps=10 speed=83.0 pwm=255.0 volt=3.5943604 mode=0
tard=466 steps=11 speed=88.0 pwm=255.0 volt=3.5943604 mode=0
tard=477 steps=12 speed=88.0 pwm=255.0 volt=3.5943604 mode=0
tard=491 steps=14 speed=95.0 pwm=255.0 volt=3.5943604 mode=0
tard=503 steps=15 speed=97.0 pwm=255.0 volt=3.5943604 mode=0
tard=519 steps=16 speed=91.0 pwm=255.0 volt=3.6062622 mode=0
tard=534 steps=18 speed=98.0 pwm=255.0 volt=3.5943604 mode=0
tard=548 steps=19 speed=100.0 pwm=0.0 volt=3.6657715 mode=4
tard=560 steps=20 speed=79.0 pwm=0.0 volt=3.7252808 mode=4
tard=571 steps=20 speed=41.0 pwm=0.0 volt=3.7490845 mode=4
tard=584 steps=21 speed=73.0 pwm=0.0 volt=3.7609863 mode=4
tard=595 steps=21 speed=47.0 pwm=0.0 volt=3.7609863 mode=4
tard=608 steps=21 speed=30.0 pwm=0.0 volt=3.7609863 mode=4
tard=620 steps=20 speed=0.0 pwm=0.0 volt=3.7728882 mode=4
tard=632 steps=20 speed=0.0 pwm=0.0 volt=3.7728882 mode=4
tard=643 steps=20 speed=0.0 pwm=0.0 volt=3.7728882 mode=4
tard=655 steps=20 speed=0.0 pwm=0.0 volt=3.7728882 mode=4
tard=669 steps=20 speed=0.0 pwm=0.0 volt=3.78479 mode=4
tard=681 steps=20 speed=0.0 pwm=0.0 volt=3.78479 mode=4
tard=692 steps=20 speed=0.0 pwm=0.0 volt=3.78479 mode=4
tard=704 steps=20 speed=0.0 pwm=0.0 volt=3.78479 mode=4
tard=716 steps=20 speed=0.0 pwm=0.0 volt=3.78479 mode=4
tard=727 steps=20 speed=0.0 pwm=0.0 volt=3.78479 mode=4
tard=738 steps=20 speed=0.0 pwm=0.0 volt=3.78479 mode=4
tard=753 steps=20 speed=0.0 pwm=0.0 volt=3.78479 mode=4
tard=764 steps=20 speed=0.0 pwm=0.0 volt=3.78479 mode=4
tard=775 steps=20 speed=0.0 pwm=0.0 volt=3.7728882 mode=4
tard=788 steps=20 speed=0.0 pwm=0.0 volt=3.7728882 mode=4
tard=800 steps=20 speed=0.0 pwm=0.0 volt=3.7728882 mode=4
tard=812 steps=20 speed=0.0 pwm=0.0 volt=3.7728882 mode=4
tard=825 steps=20 speed=0.0 pwm=0.0 volt=3.7728882 mode=4
tard=837 steps=20 speed=0.0 pwm=0.0 volt=3.7728882 mode=4
tard=848 steps=20 speed=0.0 pwm=0.0 volt=3.78479 mode=4
tard=862 steps=20 speed=0.0 pwm=0.0 volt=3.7728882 mode=4
tard=877 steps=20 speed=0.0 pwm=0.0 volt=3.78479 mode=4
tard=894 steps=20 speed=0.0 pwm=0.0 volt=3.7728882 mode=4
tard=906 steps=20 speed=0.0 pwm=0.0 volt=3.7728882 mode=4
tard=919 steps=20 speed=0.0 pwm=0.0 volt=3.78479 mode=4
tard=930 steps=20 speed=0.0 pwm=0.0 volt=3.7728882 mode=4
tard=942 steps=20 speed=0.0 pwm=0.0 volt=3.7728882 mode=4
tard=955 steps=20 speed=0.0 pwm=0.0 volt=3.7728882 mode=4
tard=967 steps=20 speed=0.0 pwm=0.0 volt=3.7728882 mode=4
tard=978 steps=20 speed=0.0 pwm=0.0 volt=3.7728882 mode=4
tard=990 steps=20 speed=0.0 pwm=0.0 volt=3.7728882 mode=4
tard=1004 steps=20 speed=0.0 pwm=0.0 volt=3.7728882 mode=4
tard=1016 steps=20 speed=0.0 pwm=0.0 volt=3.78479 mode=4
tard=1027 steps=20 speed=0.0 pwm=0.0 volt=3.7728882 mode=4
tard=1040 steps=20 speed=0.0 pwm=0.0 volt=3.7728882 mode=4
tard=1052 steps=20 speed=0.0 pwm=0.0 volt=3.7728882 mode=4
tard=1065 steps=20 speed=0.0 pwm=0.0 volt=3.7728882 mode=4
tard=1076 steps=20 speed=0.0 pwm=0.0 volt=3.7728882 mode=4
tard=1089 steps=20 speed=0.0 pwm=0.0 volt=3.7728882 mode=4
tard=1109 steps=20 speed=0.0 pwm=0.0 volt=3.7728882 mode=4
tard=1122 steps=20 speed=0.0 pwm=0.0 volt=3.7728882 mode=4
tard=1134 steps=20 speed=0.0 pwm=0.0 volt=3.7728882 mode=4
tard=1147 steps=20 speed=0.0 pwm=0.0 volt=3.7728882 mode=4
tard=1161 steps=20 speed=0.0 pwm=0.0 volt=3.7728882 mode=4
tard=1173 steps=20 speed=0.0 pwm=0.0 volt=3.7728882 mode=4
tard=1188 steps=20 speed=0.0 pwm=0.0 volt=3.7728882 mode=4
tard=1199 steps=20 speed=0.0 pwm=0.0 volt=3.7728882 mode=4
tard=1211 steps=20 speed=0.0 pwm=0.0 volt=3.7728882 mode=4
tard=1222 steps=20 speed=0.0 pwm=0.0 volt=3.7728882 mode=4
tard=1234 steps=20 speed=0.0 pwm=0.0 volt=3.7728882 mode=4
tard=1245 steps=20 speed=0.0 pwm=0.0 volt=3.7728882 mode=4
tard=1256 steps=20 speed=0.0 pwm=0.0 volt=3.7728882 mode=4
tard=1270 steps=20 speed=0.0 pwm=0.0 volt=3.7728882 mode=4
tard=1282 steps=20 speed=0.0 pwm=0.0 volt=3.7728882 mode=4
tard=1294 steps=20 speed=0.0 pwm=0.0 volt=3.7728882 mode=4
tard=1310 steps=20 speed=0.0 pwm=0.0 volt=3.7728882 mode=4
tard=1322 steps=20 speed=0.0 pwm=0.0 volt=3.7609863 mode=4
tard=1333 steps=20 speed=0.0 pwm=0.0 volt=3.7609863 mode=4
tard=1346 steps=20 speed=0.0 pwm=0.0 volt=3.7609863 mode=4
tard=1358 steps=20 speed=0.0 pwm=0.0 volt=3.7728882 mode=4
tard=1372 steps=20 speed=0.0 pwm=0.0 volt=3.7728882 mode=4
tard=1384 steps=20 speed=0.0 pwm=0.0 volt=3.7728882 mode=4
tard=1395 steps=20 speed=0.0 pwm=0.0 volt=3.7728882 mode=4
tard=1416 steps=20 speed=0.0 pwm=0.0 volt=3.7728882 mode=4
tard=1431 steps=20 speed=0.0 pwm=0.0 volt=3.7728882 mode=4
tard=1444 steps=20 speed=0.0 pwm=0.0 volt=3.7728882 mode=4
tard=1458 steps=20 speed=0.0 pwm=0.0 volt=3.7728882 mode=4
tard=1470 steps=20 speed=0.0 pwm=0.0 volt=3.78479 mode=4
tard=1481 steps=20 speed=0.0 pwm=0.0 volt=3.7728882 mode=4
tard=1493 steps=20 speed=0.0 pwm=0.0 volt=3.7728882 mode=4
tard=1504 steps=20 speed=0.0 pwm=0.0 volt=3.78479 mode=4
tard=1517 steps=20 speed=0.0 pwm=0.0 volt=3.7728882 mode=4
tard=1530 steps=20 speed=0.0 pwm=0.0 volt=3.7728882 mode=4
tard=1542 steps=20 speed=0.0 pwm=0.0 volt=3.78479 mode=4
tard=1553 steps=20 speed=0.0 pwm=0.0 volt=3.78479 mode=4
tard=1564 steps=20 speed=0.0 pwm=0.0 volt=3.7728882 mode=4
tard=1579 steps=20 speed=0.0 pwm=0.0 volt=3.7728882 mode=4
tard=1590 steps=20 speed=0.0 pwm=0.0 volt=3.7728882 mode=4
tard=1601 steps=20 speed=0.0 pwm=0.0 volt=3.7728882 mode=4
tard=1614 steps=20 speed=0.0 pwm=0.0 volt=3.7728882 mode=4
tard=1625 steps=20 speed=0.0 pwm=0.0 volt=3.7728882 mode=4
tard=1636 steps=20 speed=0.0 pwm=0.0 volt=3.7728882 mode=4
tard=1647 steps=20 speed=0.0 pwm=0.0 volt=3.7728882 mode=4
tard=1662 steps=20 speed=0.0 pwm=0.0 volt=3.7728882 mode=4
tard=1674 steps=20 speed=0.0 pwm=0.0 volt=3.78479 mode=4
tard=1687 steps=20 speed=0.0 pwm=0.0 volt=3.78479 mode=4
tard=1698 steps=20 speed=0.0 pwm=0.0 volt=3.78479 mode=4
tard=1709 steps=20 speed=0.0 pwm=0.0 volt=3.78479 mode=4
tard=1722 steps=20 speed=0.0 pwm=0.0 volt=3.78479 mode=4
tard=1735 steps=20 speed=0.0 pwm=0.0 volt=3.7728882 mode=4
tard=1746 steps=20 speed=0.0 pwm=0.0 volt=3.78479 mode=4
tard=1757 steps=20 speed=0.0 pwm=0.0 volt=3.78479 mode=4
tard=1771 steps=20 speed=0.0 pwm=0.0 volt=3.7728882 mode=4
tard=1783 steps=20 speed=0.0 pwm=0.0 volt=3.7728882 mode=4
tard=1795 steps=20 speed=0.0 pwm=0.0 volt=3.7728882 mode=4
tard=1808 steps=20 speed=0.0 pwm=0.0 volt=3.7728882 mode=4
tard=1819 steps=20 speed=0.0 pwm=0.0 volt=3.7728882 mode=4
tard=1830 steps=20 speed=0.0 pwm=0.0 volt=3.7728882 mode=4
tard=1842 steps=20 speed=0.0 pwm=0.0 volt=3.7728882 mode=4
tard=1855 steps=20 speed=0.0 pwm=0.0 volt=3.7728882 mode=4
tard=1867 steps=20 speed=0.0 pwm=0.0 volt=3.7728882 mode=4
tard=1878 steps=20 speed=0.0 pwm=0.0 volt=3.7728882 mode=4
tard=1889 steps=20 speed=0.0 pwm=0.0 volt=3.7728882 mode=4
tard=1903 steps=20 speed=0.0 pwm=0.0 volt=3.7728882 mode=4
tard=1914 steps=20 speed=0.0 pwm=0.0 volt=3.78479 mode=4
tard=1926 steps=20 speed=0.0 pwm=0.0 volt=3.78479 mode=4
tard=1940 steps=20 speed=0.0 pwm=0.0 volt=3.7728882 mode=4
tard=1951 steps=20 speed=0.0 pwm=0.0 volt=3.78479 mode=4
tard=1962 steps=20 speed=0.0 pwm=0.0 volt=3.7728882 mode=4
tard=1975 steps=20 speed=0.0 pwm=0.0 volt=3.78479 mode=4
tard=1987 steps=20 speed=0.0 pwm=0.0 volt=3.78479 mode=4
tard=1998 steps=20 speed=0.0 pwm=0.0 volt=3.78479 mode=4
tard=2009 steps=20 speed=0.0 pwm=0.0 volt=3.7728882 mode=4
tard=2022 steps=20 speed=0.0 pwm=0.0 volt=3.7728882 mode=4
tard=2034 steps=20 speed=0.0 pwm=0.0 volt=3.7728882 mode=4
tard=2045 steps=20 speed=0.0 pwm=0.0 volt=3.7728882 mode=4
tard=2058 steps=20 speed=0.0 pwm=0.0 volt=3.7728882 mode=4
tard=2070 steps=20 speed=0.0 pwm=0.0 volt=3.7728882 mode=4
tard=2081 steps=20 speed=0.0 pwm=0.0 volt=3.7728882 mode=4
tard=2096 steps=20 speed=0.0 pwm=0.0 volt=3.7728882 mode=4
