param_alpha=7.0
param_noise_gyro=0.003
param_noise_pos=0.04
param_noise_v=0.9
param_pwm_noise=0.0
param_qf=0.0
param_zacc_noise=0.0
param_zacc_zero=0.0
tard=5 steps=0 speed=0.0 pwm=0.0 volt=3.7728882 mode=2
tgy=8 gy=-0.012986723
tstate=8 phi=-0.18027906893665274 phidot=-0.012987450244059881
tzacc=15 zacc=-1.436521
tard=17 steps=0 speed=0.0 pwm=0.0 volt=3.7728882 mode=2
tgy=18 gy=-0.017873645
tstate=18 phi=-0.1808453542675389 phidot=-0.017874488041974196
tgy=28 gy=-0.00443461
tstate=28 phi=-0.18145969960016572 phidot=-0.004435641019819123
tard=30 steps=0 speed=0.0 pwm=0.0 volt=3.7728882 mode=2
tzacc=35 zacc=-1.2066777
tgy=36 gy=0.0041175038
tstate=36 phi=-0.18177308656178556 phidot=0.004116497604466557
tard=42 steps=0 speed=0.0 pwm=0.0 volt=3.7728882 mode=2
tgy=46 gy=0.009004425
tstate=46 phi=-0.18216869303677935 phidot=0.009003476362833121
tard=54 steps=0 speed=0.0 pwm=0.0 volt=3.7728882 mode=0
tgy=55 gy=0.02122173
tstate=55 phi=-0.1824397970727198 phidot=0.021220692355551282
tzacc=55 zacc=-1.2258313
tgy=64 gy=0.028552113
tstate=64 phi=-0.18260116905537846 phidot=0.028551128375601184
tard=66 steps=0 speed=0.0 pwm=0.0 volt=3.7609863 mode=0
tgy=73 gy=0.044434607
tstate=73 phi=-0.1826950536320163 phidot=0.04443352569676906
tzacc=75 zacc=-1.2258313
tard=78 steps=0 speed=0.0 pwm=12.0 volt=3.7371826 mode=0
tgy=83 gy=0.057873644
tstate=83 phi=-0.18268506464806317 phidot=0.05787260511376895
tard=89 steps=0 speed=0.0 pwm=24.0 volt=3.7490845 mode=0
tgy=92 gy=0.057873644
tstate=92 phi=-0.18251555489443552 phidot=0.05787274108880896
tzacc=96 zacc=-1.4556746
tard=101 steps=0 speed=0.0 pwm=36.0 volt=3.7371826 mode=0
tgy=101 gy=0.074977875
tstate=101 phi=-0.18234243407903974 phidot=0.07497678080424217
tgy=110 gy=0.082308255
tstate=110 phi=-0.1820156851009881 phidot=0.08230727210964697
tard=113 steps=0 speed=0.0 pwm=47.0 volt=3.7371826 mode=0
tzacc=116 zacc=-1.4748282
tgy=120 gy=0.08719517
tstate=120 phi=-0.18162285981671558 phidot=0.08719422478099703
tard=124 steps=0 speed=0.0 pwm=59.0 volt=3.7371826 mode=0
tgy=129 gy=0.08719517
tstate=129 phi=-0.18118434987219378 phidot=0.0871942759861467
tard=140 steps=0 speed=0.0 pwm=72.0 volt=3.701477 mode=0
tzacc=137 zacc=-1.5705963
tgy=138 gy=0.0920821
tstate=138 phi=-0.18074333883358407 phidot=0.09208114853920521
tard=151 steps=0 speed=0.0 pwm=85.0 volt=3.701477 mode=0
tgy=148 gy=0.0920821
tstate=148 phi=-0.18024798644479298 phidot=0.09208120591110168
tgy=157 gy=0.08475171
tstate=157 phi=-0.1797620520135209 phidot=0.08475090256329418
tzacc=158 zacc=-1.3599066
tard=162 steps=0 speed=0.0 pwm=97.0 volt=3.6895752 mode=0
tgy=166 gy=0.08597344
tstate=166 phi=-0.17933863073137124 phidot=0.08597254014227884
tard=174 steps=0 speed=0.0 pwm=109.0 volt=3.6776733 mode=0
tgy=175 gy=0.076199606
tstate=175 phi=-0.17890513577636086 phidot=0.07619883011985708
tzacc=177 zacc=-1.6089035
tgy=185 gy=0.07742134
tstate=185 phi=-0.17856054124757828 phidot=0.07742044153461648
tard=192 steps=0 speed=0.0 pwm=126.0 volt=3.6538696 mode=0
tgy=194 gy=0.07253441
tstate=194 phi=-0.17819993383757882 phidot=0.0725335850314281
tzacc=198 zacc=-1.6280571
tgy=203 gy=0.06886922
tstate=203 phi=-0.17788160426812788 phidot=0.06886837908605344
tard=208 steps=1 speed=0.0 pwm=140.0 volt=3.6538696 mode=0
tgy=212 gy=0.06398229
tstate=212 phi=-0.1775952637258185 phidot=0.06398146907274388
tard=223 steps=1 speed=0.0 pwm=156.0 volt=3.6419678 mode=0
tzacc=218 zacc=-1.436521
tgy=222 gy=0.057873644
tstate=222 phi=-0.1773682777409247 phidot=0.05787282833293059
tgy=231 gy=0.061538838
tstate=231 phi=-0.1771759601572731 phidot=0.06153792024722824
tard=235 steps=1 speed=0.0 pwm=169.0 volt=3.618164 mode=0
tzacc=239 zacc=-1.2066777
tgy=240 gy=0.056651913
tstate=240 phi=-0.1769520352194667 phidot=0.05665109203160819
tard=247 steps=1 speed=0.0 pwm=182.0 volt=3.5943604 mode=0
tgy=250 gy=0.057873644
tstate=250 phi=-0.17679213994106005 phidot=0.057872757315296376
tard=261 steps=1 speed=0.0 pwm=195.0 volt=3.6062622 mode=0
tzacc=259 zacc=-1.3599066
tgy=259 gy=0.07009095
tstate=259 phi=-0.1765935216482809 phidot=0.07008993882756975
tgy=268 gy=0.07253441
tstate=268 phi=-0.17628689713912557 phidot=0.0725335123727377
tard=274 steps=1 speed=0.0 pwm=208.0 volt=3.5705566 mode=0
tgy=277 gy=0.07009095
tstate=277 phi=-0.17595856863457252 phidot=0.07009010617774947
tzacc=279 zacc=-1.3215994
tard=287 steps=1 speed=0.0 pwm=221.0 volt=3.5705566 mode=0
tgy=287 gy=0.060317107
tstate=287 phi=-0.17566224424947155 phidot=0.06031633623715761
tgy=296 gy=0.06398229
tstate=296 phi=-0.1754389234449405 phidot=0.06398138393351187
tzacc=300 zacc=-1.436521
tard=302 steps=2 speed=0.0 pwm=235.0 volt=3.546753 mode=0
tgy=305 gy=0.052986722
tstate=305 phi=-0.1751868049359867 phidot=0.05298597906481246
tard=314 steps=2 speed=0.0 pwm=249.0 volt=3.534851 mode=0
tgy=315 gy=0.04565634
tstate=315 phi=-0.17505642306606736 phidot=0.045655546758701974
tzacc=320 zacc=-1.3024458
tgy=324 gy=0.04321288
tstate=324 phi=-0.174963757310673 phidot=0.04321204160289368
tard=328 steps=3 speed=17.0 pwm=255.0 volt=3.5229492 mode=0
tgy=333 gy=0.03954769
tstate=333 phi=-0.17489264100648946 phidot=0.039546865529392655
tzacc=341 zacc=-1.4939818
tgy=342 gy=0.03954769
tstate=342 phi=-0.17485212126571256 phidot=0.03954682467624102
tard=348 steps=4 speed=52.0 pwm=255.0 volt=3.5229492 mode=0
tgy=352 gy=0.032217305
tstate=352 phi=-0.17485205522119768 phidot=0.03221651491698046
tzacc=361 zacc=-1.3599066
tgy=361 gy=0.024886921
tstate=361 phi=-0.1748789119530624 phidot=0.02488613876559055
tard=366 steps=6 speed=58.0 pwm=255.0 volt=3.534851 mode=0
tgy=370 gy=0.027330384
tstate=370 phi=-0.1749667277064695 phidot=0.02732949141198178
tard=383 steps=7 speed=71.0 pwm=255.0 volt=3.534851 mode=0
tgy=379 gy=0.02244346
tstate=379 phi=-0.17503521161854646 phidot=0.022442649930018738
tzacc=382 zacc=-1.2641385
tgy=389 gy=0.026108652
tstate=389 phi=-0.17519811200887123 phidot=0.026107749765646657
tard=395 steps=8 speed=75.0 pwm=255.0 volt=3.534851 mode=0
tgy=398 gy=0.028552113
tstate=398 phi=-0.17527290054722455 phidot=0.028551219313664028
tzacc=402 zacc=-1.2258313
tard=408 steps=10 speed=85.0 pwm=255.0 volt=3.534851 mode=0
tgy=407 gy=0.029773843
tstate=407 phi=-0.17532558946859036 phidot=0.029772962153376478
tgy=416 gy=0.033439033
tstate=416 phi=-0.17536533417200664 phidot=0.03343812469699213
tard=420 steps=10 speed=80.0 pwm=255.0 volt=3.534851 mode=0
tzacc=422 zacc=-1.3982137
tgy=426 gy=0.027330384
tstate=426 phi=-0.1754200931658956 phidot=0.027329578426694083
tard=432 steps=12 speed=90.0 pwm=255.0 volt=3.546753 mode=0
tgy=435 gy=0.013891347
tstate=435 phi=-0.17548904971807647 phidot=0.01389063012246465
tzacc=442 zacc=-1.5131354
tard=446 steps=13 speed=91.0 pwm=255.0 volt=3.534851 mode=0
tgy=444 gy=4.523117E-4
tstate=444 phi=-0.1756783819720798 phidot=4.515944432254143E-4
tgy=454 gy=-0.0032128803
tstate=454 phi=-0.17605965649958782 phidot=-0.003213712599260607
tard=459 steps=14 speed=93.0 pwm=255.0 volt=3.534851 mode=0
tzacc=462 zacc=-1.4173675
tgy=463 gy=-0.008099802
tstate=463 phi=-0.17639770497043233 phidot=-0.008100618260867276
tgy=472 gy=-0.020317107
tstate=472 phi=-0.17678366756275332 phidot=-0.02031784338983547
tard=475 steps=16 speed=96.0 pwm=255.0 volt=3.546753 mode=0
tgy=481 gy=-0.023982298
tstate=481 phi=-0.1772746120059405 phidot=-0.023983131714225336
tard=492 steps=17 speed=97.0 pwm=255.0 volt=3.546753 mode=0
tzacc=483 zacc=-1.4556746
tgy=491 gy=-0.027647488
tstate=491 phi=-0.1778999673613317 phidot=-0.027648328560889557
tgy=500 gy=-0.039864793
tstate=500 phi=-0.1784621854374154 phidot=-0.03986553722843403
tzacc=503 zacc=-1.7238252
tgy=509 gy=-0.045973446
tstate=509 phi=-0.17913086166235426 phidot=-0.04597426161759767
tard=508 steps=19 speed=99.0 pwm=255.0 volt=3.546753 mode=0
tgy=518 gy=-0.05574729
tstate=518 phi=-0.1798571280978603 phidot=-0.05574806692596668
tgy=528 gy=-0.06307767
tstate=528 phi=-0.1808041500700828 phidot=-0.06307849059228783
tzacc=530 zacc=-1.4748282
tard=535 steps=22 speed=98.0 pwm=255.0 volt=3.546753 mode=0
tgy=537 gy=-0.074073255
tstate=537 phi=-0.18168632833047768 phidot=-0.07407402772188867
tard=547 steps=23 speed=98.0 pwm=255.0 volt=3.534851 mode=0
tgy=546 gy=-0.08262536
tstate=546 phi=-0.1826665836799197 phidot=-0.0826261639775836
tzacc=549 zacc=-1.436521
tgy=556 gy=-0.08506882
tstate=556 phi=-0.18388223272767912 phidot=-0.08506970308096043
tard=562 steps=24 speed=88.0 pwm=255.0 volt=3.534851 mode=0
tgy=565 gy=-0.078960165
tstate=565 phi=-0.18495347133330364 phidot=-0.07896114565484907
tzacc=569 zacc=-1.3599066
tard=578 steps=26 speed=100.0 pwm=0.0 volt=3.6419678 mode=4
tgy=574 gy=-0.07529497
tstate=574 phi=-0.18597224715544441 phidot=-0.07529592948522516
tgy=583 gy=-0.05819075
tstate=583 phi=-0.1869493632469019 phidot=-0.058191865574997254
tard=591 steps=27 speed=92.0 pwm=0.0 volt=3.7371826 mode=4
tzacc=590 zacc=-1.1875241
tgy=593 gy=-0.032534413
tstate=593 phi=-0.18790561904373762 phidot=-0.032535598513744504
tgy=602 gy=-0.020317107
tstate=602 phi=-0.18850231194926728 phidot=-0.020318174969011102
tard=606 steps=27 speed=53.0 pwm=0.0 volt=3.7609863 mode=4
tzacc=610 zacc=-1.2258313
tgy=611 gy=-0.008099802
tstate=611 phi=-0.18898897424927047 phidot=-0.008100872041983537
tard=619 steps=28 speed=71.0 pwm=0.0 volt=3.7728882 mode=4
tgy=621 gy=0.0028957725
tstate=621 phi=-0.1894554401756213 phidot=0.0028947261835696875
tgy=630 gy=0.007782695
tstate=630 phi=-0.18973803709478199 phidot=0.007781702734854984
tard=634 steps=28 speed=36.0 pwm=0.0 volt=3.7728882 mode=4
tzacc=631 zacc=-1.1875241
tgy=639 gy=0.007782695
tstate=639 phi=-0.18997988382038397 phidot=0.007781756278811128
tard=649 steps=28 speed=24.0 pwm=0.0 volt=3.78479 mode=4
tgy=648 gy=0.011447886
tstate=648 phi=-0.1902182872411411 phidot=0.011446905088417919
tzacc=651 zacc=-1.6280571
tgy=658 gy=0.001674043
tstate=658 phi=-0.19050344171784503 phidot=0.0016732008741691673
tard=661 steps=28 speed=18.0 pwm=0.0 volt=3.78479 mode=4
tgy=667 gy=-0.012986723
tstate=667 phi=-0.19081032105534848 phidot=-0.012987501364109866
tzacc=671 zacc=-1.4173675
tard=674 steps=28 speed=0.0 pwm=0.0 volt=3.78479 mode=4
tgy=676 gy=-0.022760566
tstate=676 phi=-0.19124480178717634 phidot=-0.022761401021101857
tgy=685 gy=-0.03375614
tstate=685 phi=-0.19176808192850917 phidot=-0.033756963973615536
tard=688 steps=28 speed=0.0 pwm=0.0 volt=3.78479 mode=4
tzacc=692 zacc=-1.4939818
tgy=695 gy=-0.043529984
tstate=695 phi=-0.1925043041966718 phidot=-0.04353083451446395
tard=702 steps=28 speed=0.0 pwm=0.0 volt=3.796692 mode=4
tgy=704 gy=-0.04841691
tstate=704 phi=-0.19320940779964157 phidot=-0.048417807401416435
tzacc=712 zacc=-1.340753
tgy=713 gy=-0.05574729
tstate=713 phi=-0.19396079385042053 phidot=-0.05574816396210132
tard=721 steps=28 speed=0.0 pwm=0.0 volt=3.796692 mode=4
tgy=723 gy=-0.05574729
tstate=723 phi=-0.19490955745977248 phidot=-0.05574825017321597
tgy=732 gy=-0.05086037
tstate=732 phi=-0.19571668681038443 phidot=-0.05086139181951818
tard=737 steps=28 speed=0.0 pwm=0.0 volt=3.796692 mode=4
tzacc=733 zacc=-1.2641385
tgy=741 gy=-0.044751715
tstate=741 phi=-0.1964789297511415 phidot=-0.04475275287983127
tard=750 steps=28 speed=0.0 pwm=0.0 volt=3.796692 mode=4
tgy=750 gy=-0.043529984
tstate=750 phi=-0.1971907937971756 phidot=-0.04353097038031632
tzacc=753 zacc=-1.2258313
tgy=760 gy=-0.039864793
tstate=760 phi=-0.19801572547109417 phidot=-0.0398658070419419
tard=764 steps=28 speed=0.0 pwm=0.0 volt=3.796692 mode=4
tgy=769 gy=-0.032534413
tstate=769 phi=-0.19867798314507418 phidot=-0.032535475822251275
tard=778 steps=28 speed=0.0 pwm=0.0 volt=3.796692 mode=4
tzacc=774 zacc=-1.340753
tgy=778 gy=-0.025204029
tstate=778 phi=-0.19927417225472893 phidot=-0.025205094824941446
tgy=787 gy=-0.016651914
tstate=787 phi=-0.19980299548803773 phidot=-0.016652995900795983
tard=791 steps=28 speed=0.0 pwm=0.0 volt=3.796692 mode=4
tzacc=793 zacc=-1.2258313
tgy=797 gy=-0.009321533
tstate=797 phi=-0.2003557187664817 phidot=-0.0093225960031076
tard=804 steps=28 speed=0.0 pwm=0.0 volt=3.796692 mode=4
tgy=806 gy=0.010226156
tstate=806 phi=-0.20072983501536815 phidot=0.01022494491928197
tzacc=814 zacc=-1.2449849
tgy=815 gy=0.02122173
tstate=815 phi=-0.20093593277726116 phidot=0.02122061467394877
tard=820 steps=28 speed=0.0 pwm=0.0 volt=3.78479 mode=4
tgy=825 gy=0.033439033
tstate=825 phi=-0.20110318094579854 phidot=0.03343791588854607
tard=832 steps=28 speed=0.0 pwm=0.0 volt=3.796692 mode=4
tgy=834 gy=0.04687807
tstate=834 phi=-0.2010958225633731 phidot=0.046876924728178955
tzacc=835 zacc=-1.4939818
tgy=843 gy=0.050543264
tstate=843 phi=-0.20097649355338218 phidot=0.050542228627280195
tard=847 steps=28 speed=0.0 pwm=0.0 volt=3.78479 mode=4
tgy=852 gy=0.055430185
tstate=852 phi=-0.20082156713938687 phidot=0.055429137096112586
tzacc=854 zacc=-1.4173675
tard=860 steps=28 speed=0.0 pwm=0.0 volt=3.78479 mode=4
tgy=862 gy=0.0480998
tstate=862 phi=-0.2006618599215791 phidot=0.048098882884021345
tgy=871 gy=0.044434607
tstate=871 phi=-0.2005352222674337 phidot=0.04443365652642319
tard=874 steps=28 speed=0.0 pwm=0.0 volt=3.78479 mode=4
tzacc=875 zacc=-1.4173675
tgy=880 gy=0.03954769
tstate=880 phi=-0.20044165490274318 phidot=0.03954675301116314
tard=887 steps=28 speed=0.0 pwm=0.0 volt=3.78479 mode=4
tgy=889 gy=0.03954769
tstate=889 phi=-0.20038544554709642 phidot=0.039546698551054416
tard=902 steps=28 speed=0.0 pwm=0.0 volt=3.78479 mode=4
tzacc=895 zacc=-1.3790601
tgy=899 gy=0.038325958
tstate=899 phi=-0.20037209595139568 phidot=0.03832498001365693
tgy=908 gy=0.023665192
tstate=908 phi=-0.2003410549929219 phidot=0.023664365682733973
tard=914 steps=28 speed=0.0 pwm=0.0 volt=3.78479 mode=4
tzacc=916 zacc=-1.4173675
tgy=917 gy=0.026108652
tstate=917 phi=-0.20042127465164605 phidot=0.026107634398695248
tgy=926 gy=0.024886921
tstate=926 phi=-0.20048273788954685 phidot=0.024885943868403294
tard=928 steps=28 speed=0.0 pwm=0.0 volt=3.78479 mode=4
tgy=936 gy=0.027330384
tstate=936 phi=-0.20060671989751677 phidot=0.02732936789948784
tzacc=936 zacc=-1.3982137
tard=940 steps=28 speed=0.0 pwm=0.0 volt=3.78479 mode=4
tgy=945 gy=0.030995574
tstate=945 phi=-0.20064924680060028 phidot=0.030994540972790113
tard=951 steps=28 speed=0.0 pwm=0.0 volt=3.78479 mode=4
tgy=954 gy=0.026108652
tstate=954 phi=-0.20066796741638382 phidot=0.02610771528475976
tzacc=956 zacc=-1.436521
tard=962 steps=28 speed=0.0 pwm=0.0 volt=3.78479 mode=4
tgy=963 gy=0.02122173
tstate=963 phi=-0.20072961079301985 phidot=0.02122079359455277
tgy=973 gy=0.02122173
tstate=973 phi=-0.20088832402760784 phidot=0.02122073848040583
tard=975 steps=28 speed=0.0 pwm=0.0 volt=3.78479 mode=4
tzacc=977 zacc=-1.4556746
tgy=982 gy=0.027330384
tstate=982 phi=-0.20097824797974884 phidot=0.027329321870154716
tard=988 steps=28 speed=0.0 pwm=0.0 volt=3.78479 mode=4
tgy=991 gy=0.02122173
tstate=991 phi=-0.2010274665956593 phidot=0.0212208058063737
tzacc=997 zacc=-1.4748282
tard=999 steps=28 speed=0.0 pwm=0.0 volt=3.796692 mode=4
tgy=1001 gy=0.013891347
tstate=1001 phi=-0.2011920091058894 phidot=0.013890426918488852
tgy=1010 gy=0.013891347
tstate=1010 phi=-0.20135227652153204 phidot=0.0138903518382507
tard=1013 steps=28 speed=0.0 pwm=0.0 volt=3.78479 mode=4
tzacc=1017 zacc=-1.4748282
tgy=1019 gy=0.016334808
tstate=1019 phi=-0.2015084375835364 phidot=0.01633378439045298
tard=1024 steps=28 speed=0.0 pwm=0.0 volt=3.796692 mode=4
tgy=1028 gy=0.010226156
tstate=1028 phi=-0.2016528504472142 phidot=0.010225227734744935
tard=1037 steps=28 speed=0.0 pwm=0.0 volt=3.796692 mode=4
tgy=1038 gy=0.010226156
tstate=1038 phi=-0.20191375798338748 phidot=0.010225158461560899
tzacc=1042 zacc=-1.4939818
tgy=1047 gy=0.0065609645
tstate=1047 phi=-0.20210806705345957 phidot=0.0065600070773850355
tard=1052 steps=28 speed=0.0 pwm=0.0 volt=3.796692 mode=4
tgy=1056 gy=0.005339233
tstate=1056 phi=-0.2023311857266046 phidot=0.005338247328727924
tard=1065 steps=28 speed=0.0 pwm=0.0 volt=3.796692 mode=4
tgy=1065 gy=0.009004425
tstate=1065 phi=-0.202557760811676 phidot=0.009003383442655041
tzacc=1068 zacc=-1.436521
tgy=1075 gy=0.001674043
tstate=1075 phi=-0.202837153427926 phidot=0.0016731153575908209
tard=1081 steps=28 speed=0.0 pwm=0.0 volt=3.796692 mode=4
tgy=1084 gy=-0.005656341
tstate=1084 phi=-0.20311005949871203 phidot=-0.005657262147382117
tzacc=1090 zacc=-1.3024458
tard=1097 steps=28 speed=0.0 pwm=0.0 volt=3.78479 mode=4
tgy=1093 gy=-0.005656341
tstate=1093 phi=-0.20343786528935728 phidot=-0.005657345873493494
tgy=1102 gy=-0.0068780705
tstate=1102 phi=-0.2037666504780015 phidot=-0.006879063229387
tzacc=1106 zacc=-1.436521
tard=1108 steps=28 speed=0.0 pwm=0.0 volt=3.78479 mode=4
tgy=1112 gy=-0.011764992
tstate=1112 phi=-0.20419828265455026 phidot=-0.011765950695136126
tard=1121 steps=28 speed=0.0 pwm=0.0 volt=3.78479 mode=4
tgy=1121 gy=-0.011764992
tstate=1121 phi=-0.20457869445248253 phidot=-0.011766002311294946
tzacc=1127 zacc=-1.3790601
tgy=1131 gy=-0.017873645
tstate=1131 phi=-0.20505959511026986 phidot=-0.01787459528737527
tard=1134 steps=28 speed=0.0 pwm=0.0 volt=3.7728882 mode=4
tgy=1140 gy=-0.020317107
tstate=1140 phi=-0.20549708644310302 phidot=-0.02031809469951963
tard=1151 steps=28 speed=0.0 pwm=0.0 volt=3.7728882 mode=4
tzacc=1148 zacc=-1.2641385
tgy=1149 gy=-0.017873645
tstate=1149 phi=-0.20594864063973936 phidot=-0.01787468911238392
tgy=1158 gy=-0.022760566
tstate=1158 phi=-0.20638858785010164 phidot=-0.02276153056600326
tard=1163 steps=28 speed=0.0 pwm=0.0 volt=3.7728882 mode=4
tgy=1167 gy=-0.016651914
tstate=1167 phi=-0.2068551723466785 phidot=-0.016653003365453597
tzacc=1168 zacc=-1.436521
tard=1174 steps=28 speed=0.0 pwm=0.0 volt=3.7728882 mode=4
tgy=1177 gy=-0.014208455
tstate=1177 phi=-0.20736900973026393 phidot=-0.014209502763244578
tard=1185 steps=28 speed=0.0 pwm=0.0 volt=3.7728882 mode=4
tgy=1186 gy=-0.005656341
tstate=1186 phi=-0.20775324186316033 phidot=-0.005657462982510866
tzacc=1188 zacc=-1.283292
tgy=1195 gy=-7.694196E-4
tstate=1195 phi=-0.20806538408671074 phidot=-7.70502084920216E-4
tard=1198 steps=28 speed=0.0 pwm=0.0 volt=3.7728882 mode=4
tgy=1205 gy=0.009004425
tstate=1205 phi=-0.20840636640687057 phidot=0.009003297577325264
tard=1209 steps=28 speed=0.0 pwm=0.0 volt=3.7728882 mode=4
tzacc=1208 zacc=-1.340753
tgy=1214 gy=0.017556539
tstate=1214 phi=-0.20857869796267936 phidot=0.01755541232040017
tard=1221 steps=28 speed=0.0 pwm=0.0 volt=3.78479 mode=4
tgy=1223 gy=0.017556539
tstate=1223 phi=-0.20868666979964542 phidot=0.017555507578519675
tzacc=1229 zacc=-1.340753
tard=1233 steps=28 speed=0.0 pwm=0.0 volt=3.78479 mode=4
tgy=1232 gy=0.028552113
tstate=1232 phi=-0.20877564797692988 phidot=0.02855095803124466
tgy=1242 gy=0.027330384
tstate=1242 phi=-0.20883621881312533 phidot=0.027329364197339376
tard=1246 steps=28 speed=0.0 pwm=0.0 volt=3.7728882 mode=4
tzacc=1249 zacc=-1.4748282
tgy=1251 gy=0.017556539
tstate=1251 phi=-0.2088686629072919 phidot=0.01755561615669124
tard=1258 steps=28 speed=0.0 pwm=0.0 volt=3.78479 mode=4
tgy=1260 gy=0.010226156
tstate=1260 phi=-0.20898384684440596 phidot=0.010225205208320362
tzacc=1269 zacc=-1.5897499
tard=1275 steps=28 speed=0.0 pwm=0.0 volt=3.78479 mode=4
tgy=1269 gy=0.0041175038
tstate=1269 phi=-0.20916187306876127 phidot=0.004116538910649073
tgy=1279 gy=-0.0032128803
tstate=1279 phi=-0.209471742020855 phidot=-0.0032138406360569666
tard=1287 steps=28 speed=0.0 pwm=0.0 volt=3.78479 mode=4
tgy=1288 gy=0.0065609645
tstate=1288 phi=-0.20974143396868225 phidot=0.006559818842751253
tzacc=1292 zacc=-1.3790601
tgy=1297 gy=0.005339233
tstate=1297 phi=-0.2099410579450995 phidot=0.005338209737039509
tard=1301 steps=28 speed=0.0 pwm=0.0 volt=3.78479 mode=4
tgy=1307 gy=-0.008099802
tstate=1307 phi=-0.21024630905811642 phidot=-0.008100704283903817
tzacc=1310 zacc=-1.3982137
tard=1315 steps=28 speed=0.0 pwm=0.0 volt=3.78479 mode=4
tgy=1316 gy=-0.0068780705
tstate=1316 phi=-0.21057131564838508 phidot=-0.006879124209415638
tgy=1325 gy=-0.005656341
tstate=1325 phi=-0.21088437682798564 phidot=-0.005657396342105367
tard=1328 steps=28 speed=0.0 pwm=0.0 volt=3.78479 mode=4
tzacc=1331 zacc=-1.1875241
tgy=1334 gy=-7.694196E-4
tstate=1334 phi=-0.21117892308238465 phidot=-7.705174637513135E-4
tard=1343 steps=28 speed=0.0 pwm=0.0 volt=3.78479 mode=4
tgy=1344 gy=0.007782695
tstate=1344 phi=-0.21150221139531666 phidot=0.007781564258722257
tzacc=1351 zacc=-1.340753
tgy=1353 gy=0.007782695
tstate=1353 phi=-0.21168240273312192 phidot=0.007781649075910266
tard=1356 steps=28 speed=0.0 pwm=0.0 volt=3.78479 mode=4
tgy=1362 gy=0.009004425
tstate=1362 phi=-0.2118592177001311 phidot=0.00900336486567524
tard=1370 steps=28 speed=0.0 pwm=0.0 volt=3.7728882 mode=4
tzacc=1371 zacc=-1.340753
tgy=1372 gy=0.005339233
tstate=1372 phi=-0.2121032873273109 phidot=0.0053382227764383755
tgy=1381 gy=0.001674043
tstate=1381 phi=-0.2123086959072163 phidot=0.0016730353036062406
tard=1384 steps=28 speed=0.0 pwm=0.0 volt=3.7728882 mode=4
tgy=1390 gy=0.001674043
tstate=1390 phi=-0.21253912114636989 phidot=0.0016729931119724983
tzacc=1392 zacc=-1.4556746
tard=1397 steps=28 speed=0.0 pwm=0.0 volt=3.78479 mode=4
tgy=1399 gy=-0.0068780705
tstate=1399 phi=-0.21278463073266002 phidot=-0.006879025667974034
tgy=1409 gy=-0.008099802
tstate=1409 phi=-0.21317809085136866 phidot=-0.00810084186204732
tard=1416 steps=28 speed=0.0 pwm=0.0 volt=3.7728882 mode=4
tzacc=1412 zacc=-1.3982137
tgy=1418 gy=-0.010543263
tstate=1418 phi=-0.2134977799042023 phidot=-0.010544289584396058
tgy=1427 gy=-0.016651914
tstate=1427 phi=-0.21384557183402064 phidot=-0.016652901050898616
tard=1430 steps=28 speed=0.0 pwm=0.0 volt=3.78479 mode=4
tzacc=1432 zacc=-1.3790601
tgy=1436 gy=-0.015430186
tstate=1436 phi=-0.21423308452377143 phidot=-0.01543125751877679
tard=1443 steps=28 speed=0.0 pwm=0.0 volt=3.78479 mode=4
tgy=1446 gy=-0.019095376
tstate=1446 phi=-0.2147126490524997 phidot=-0.0190963988438045
tzacc=1453 zacc=-1.2449849
tgy=1455 gy=-0.020317107
tstate=1455 phi=-0.21512487985840129 phidot=-0.020318155942094435
tard=1458 steps=28 speed=0.0 pwm=0.0 volt=3.78479 mode=4
tgy=1464 gy=-0.02642576
tstate=1464 phi=-0.21555694643803475 phidot=-0.0264267560034578
tard=1471 steps=28 speed=0.0 pwm=0.0 volt=3.78479 mode=4
tzacc=1473 zacc=-1.5514427
tgy=1474 gy=-0.021538839
tstate=1474 phi=-0.2161263165387278 phidot=-0.02153995454542694
tard=1485 steps=28 speed=0.0 pwm=0.0 volt=3.78479 mode=4
tgy=1483 gy=-0.023982298
tstate=1483 phi=-0.21656012751650816 phidot=-0.023983339456968622
tgy=1492 gy=-0.027647488
tstate=1492 phi=-0.2170175011127282 phidot=-0.027648518139641656
tzacc=1493 zacc=-1.3790601
tard=1498 steps=28 speed=0.0 pwm=0.0 volt=3.78479 mode=4
tgy=1501 gy=-0.020317107
tstate=1501 phi=-0.21748426970220008 phidot=-0.020318263387997637
tgy=1511 gy=-0.020317107
tstate=1511 phi=-0.2179985882041567 phidot=-0.020318183274468493
tard=1510 steps=28 speed=0.0 pwm=0.0 volt=3.796692 mode=4
tzacc=1514 zacc=-1.3982137
tgy=1520 gy=-0.011764992
tstate=1520 phi=-0.21839451448321767 phidot=-0.011766166348431403
tard=1528 steps=28 speed=0.0 pwm=0.0 volt=3.78479 mode=4
tgy=1529 gy=-0.005656341
tstate=1529 phi=-0.2187175038614274 phidot=-0.0056574897737825675
tzacc=1534 zacc=-1.4556746
tard=1541 steps=28 speed=0.0 pwm=0.0 volt=3.78479 mode=4
tgy=1538 gy=-0.009321533
tstate=1538 phi=-0.21900511459448777 phidot=-0.009322573689664063
tgy=1548 gy=-0.0068780705
tstate=1548 phi=-0.2193996966802884 phidot=-0.006879178236949404
tard=1553 steps=28 speed=0.0 pwm=0.0 volt=3.796692 mode=4
tzacc=1555 zacc=-1.4939818
tgy=1557 gy=-0.005656341
tstate=1557 phi=-0.21968537729750412 phidot=-0.00565743981596499
tgy=1566 gy=-0.008099802
tstate=1566 phi=-0.21996684001131567 phidot=-0.008100860846106131
tard=1566 steps=28 speed=0.0 pwm=0.0 volt=3.78479 mode=4
tzacc=1575 zacc=-1.4173675
tgy=1575 gy=-0.008099802
tstate=1575 phi=-0.2202637771918921 phidot=-0.008100889681386766
tard=1582 steps=28 speed=0.0 pwm=0.0 volt=3.78479 mode=4
tgy=1585 gy=-0.0068780705
tstate=1585 phi=-0.22064357338419446 phidot=-0.006879172068431791
tard=1595 steps=28 speed=0.0 pwm=0.0 volt=3.78479 mode=4
tgy=1594 gy=0.005339233
tstate=1594 phi=-0.22089979490458778 phidot=0.00533800507656329
tzacc=1595 zacc=-1.2258313
tgy=1603 gy=0.007782695
tstate=1603 phi=-0.2210665721614314 phidot=0.007781575351962708
tard=1611 steps=28 speed=0.0 pwm=0.0 volt=3.78479 mode=4
tgy=1613 gy=0.0041175038
tstate=1613 phi=-0.22129439833315698 phidot=0.004116447984185381
tzacc=1618 zacc=-1.3215994
tgy=1622 gy=-0.0032128803
tstate=1622 phi=-0.22149140662494546 phidot=-0.00321389225157602
tard=1629 steps=28 speed=0.0 pwm=0.0 volt=3.78479 mode=4
tgy=1631 gy=-0.005656341
tstate=1631 phi=-0.22174197136169319 phidot=-0.005657408920144699
tzacc=1639 zacc=-1.5514427
tgy=1640 gy=-0.011764992
tstate=1640 phi=-0.2220217273331891 phidot=-0.01176602005135044
tard=1648 steps=28 speed=0.0 pwm=0.0 volt=3.78479 mode=4
tgy=1650 gy=-0.010543263
tstate=1650 phi=-0.22242806720144262 phidot=-0.010544372840851246
tard=1663 steps=28 speed=0.0 pwm=0.0 volt=3.78479 mode=4
tgy=1659 gy=-0.014208455
tstate=1659 phi=-0.22274361647928334 phidot=-0.014209513542653873
tzacc=1659 zacc=-1.4173675
tgy=1668 gy=-0.011764992
tstate=1668 phi=-0.2230765894383966 phidot=-0.011766121053268588
tard=1675 steps=28 speed=0.0 pwm=0.0 volt=3.78479 mode=4
tgy=1677 gy=-0.015430186
tstate=1677 phi=-0.22340079334718035 phidot=-0.015431248067041076
tzacc=1679 zacc=-1.4556746
tgy=1687 gy=-0.017873645
tstate=1687 phi=-0.22384709410717749 phidot=-0.017874724978537676
tard=1690 steps=28 speed=0.0 pwm=0.0 volt=3.78479 mode=4
tgy=1696 gy=-0.019095376
tstate=1696 phi=-0.22421784747020884 phidot=-0.019096469580167988
tzacc=1700 zacc=-1.3982137
tard=1705 steps=28 speed=0.0 pwm=0.0 volt=3.78479 mode=4
tgy=1705 gy=-0.02642576
tstate=1705 phi=-0.22461317344546058 phidot=-0.026426787053427228
tard=1718 steps=28 speed=0.0 pwm=0.0 volt=3.78479 mode=4
tgy=1715 gy=-0.016651914
tstate=1715 phi=-0.2251357846040775 phidot=-0.016653123169564604
tzacc=1720 zacc=-1.091756
tgy=1724 gy=-0.0068780705
tstate=1724 phi=-0.22546485336422847 phidot=-0.006879293572112213
tard=1731 steps=28 speed=0.0 pwm=0.0 volt=3.78479 mode=4
tgy=1733 gy=-7.694196E-4
tstate=1733 phi=-0.2257136260059197 phidot=-7.706029454519064E-4
tzacc=1740 zacc=-1.3215994
tgy=1742 gy=0.012669616
tstate=1742 phi=-0.2258877900832513 phidot=0.012668349764034428
tard=1745 steps=28 speed=0.0 pwm=0.0 volt=3.78479 mode=4
tgy=1752 gy=0.018778268
tstate=1752 phi=-0.22602248390220617 phidot=0.01877709028029584
tard=1759 steps=28 speed=0.0 pwm=0.0 volt=3.796692 mode=4
tzacc=1761 zacc=-1.1875241
tgy=1761 gy=0.017556539
tstate=1761 phi=-0.22605409831506612 phidot=0.017555435474604086
tard=1773 steps=28 speed=0.0 pwm=0.0 volt=3.78479 mode=4
tgy=1770 gy=0.030995574
tstate=1770 phi=-0.22605799732136642 phidot=0.030994305987288057
tgy=1779 gy=0.04076942
tstate=1779 phi=-0.22594856551510947 phidot=0.040768194078297265
tzacc=1781 zacc=-1.3024458
tard=1785 steps=28 speed=0.0 pwm=0.0 volt=3.796692 mode=4
tgy=1789 gy=0.0480998
tstate=1789 phi=-0.22579158783906148 phidot=0.04809861108476021
tgy=1798 gy=0.06276056
tstate=1798 phi=-0.22551161564876593 phidot=0.06275928215225292
tard=1803 steps=28 speed=0.0 pwm=0.0 volt=3.796692 mode=4
tzacc=1802 zacc=-1.283292
tgy=1807 gy=0.06398229
tstate=1807 phi=-0.22513267877949117 phidot=0.06398116583039641
tard=1815 steps=28 speed=0.0 pwm=0.0 volt=3.796692 mode=4
tgy=1817 gy=0.061538838
tstate=1817 phi=-0.22476233913528743 phidot=0.061537751225210185
tzacc=1822 zacc=-1.3982137
tgy=1826 gy=0.061538838
tstate=1826 phi=-0.2243934585669753 phidot=0.061537728063037825
tard=1829 steps=28 speed=0.0 pwm=0.0 volt=3.78479 mode=4
tgy=1835 gy=0.050543264
tstate=1835 phi=-0.2240518581869047 phidot=0.0505422788589678
tzacc=1844 zacc=-1.340753
tgy=1844 gy=0.04199115
tstate=1844 phi=-0.22380094362072797 phidot=0.04199013750997636
tard=1848 steps=28 speed=0.0 pwm=0.0 volt=3.78479 mode=4
tgy=1854 gy=0.04321288
tstate=1854 phi=-0.22363173798287891 phidot=0.0432117619277526
tard=1861 steps=28 speed=0.0 pwm=0.0 volt=3.78479 mode=4
tzacc=1863 zacc=-1.3982137
tgy=1863 gy=0.03954769
tstate=1863 phi=-0.22343001101718338 phidot=0.03954662577198957
tard=1873 steps=28 speed=0.0 pwm=0.0 volt=3.78479 mode=4
tgy=1872 gy=0.037104227
tstate=1872 phi=-0.2232562298533229 phidot=0.03710315039050329
tgy=1881 gy=0.03954769
tstate=1881 phi=-0.223089355385967 phidot=0.03954655903268711
tzacc=1883 zacc=-1.3024458
tard=1887 steps=28 speed=0.0 pwm=0.0 volt=3.78479 mode=4
tgy=1891 gy=0.034660764
tstate=1891 phi=-0.22295307663518124 phidot=0.03465971162926182
tard=1900 steps=28 speed=0.0 pwm=0.0 volt=3.78479 mode=4
tgy=1900 gy=0.03954769
tstate=1900 phi=-0.2227975725880466 phidot=0.03954653310523819
tzacc=1903 zacc=-1.2449849
tgy=1909 gy=0.03954769
tstate=1909 phi=-0.22260994508464013 phidot=0.039546588768879676
tard=1915 steps=28 speed=0.0 pwm=0.0 volt=3.78479 mode=4
tgy=1919 gy=0.04199115
tstate=1919 phi=-0.22244713994687346 phidot=0.04199002419017907
tzacc=1924 zacc=-1.283292
tard=1929 steps=28 speed=0.0 pwm=0.0 volt=3.78479 mode=4
tgy=1928 gy=0.044434607
tstate=1928 phi=-0.2222268479966579 phidot=0.044433480954117865
tgy=1937 gy=0.04565634
tstate=1937 phi=-0.22198624233118125 phidot=0.04565522710506371
tard=1943 steps=28 speed=0.0 pwm=0.0 volt=3.78479 mode=4
tzacc=1944 zacc=-1.4173675
tgy=1946 gy=0.034660764
tstate=1946 phi=-0.22176776412713842 phidot=0.03465979097774784
tard=1955 steps=28 speed=0.0 pwm=0.0 volt=3.78479 mode=4
tgy=1956 gy=0.029773843
tstate=1956 phi=-0.221666325240236 phidot=0.02977279660903047
tzacc=1965 zacc=-1.340753
tard=1970 steps=28 speed=0.0 pwm=0.0 volt=3.78479 mode=4
tgy=1965 gy=0.017556539
tstate=1965 phi=-0.22159086947623996 phidot=0.0175555806829875
tgy=1974 gy=0.005339233
tstate=1974 phi=-0.22162383560769233 phidot=0.005338275191538733
tard=1982 steps=28 speed=0.0 pwm=0.0 volt=3.78479 mode=4
tgy=1983 gy=4.523117E-4
tstate=1983 phi=-0.2217438399164377 phidot=4.51271105019857E-4
tzacc=1985 zacc=-1.4748282
tgy=1993 gy=-0.005656341
tstate=1993 phi=-0.22198063034168616 phidot=-0.005657375394741343
tard=1999 steps=28 speed=0.0 pwm=0.0 volt=3.796692 mode=4
tgy=2002 gy=-0.011764992
tstate=2002 phi=-0.22220001529538536 phidot=-0.011766020931639434
tzacc=2005 zacc=-1.436521
tgy=2011 gy=-0.014208455
tstate=2011 phi=-0.22246204315500043 phidot=-0.014209525835364695
tard=2014 steps=28 speed=0.0 pwm=0.0 volt=3.78479 mode=4
tgy=2021 gy=-0.015430186
tstate=2021 phi=-0.22282594815898651 phidot=-0.01543127342248854
tard=2027 steps=28 speed=0.0 pwm=0.0 volt=3.796692 mode=4
tzacc=2026 zacc=-1.4556746
tgy=2030 gy=-0.012986723
tstate=2030 phi=-0.22310311384074968 phidot=-0.012987852462623878
tgy=2039 gy=-0.019095376
tstate=2039 phi=-0.2233827466055206 phidot=-0.01909641071770435
tard=2041 steps=28 speed=0.0 pwm=0.0 volt=3.796692 mode=4
tzacc=2046 zacc=-1.2449849
tgy=2048 gy=-0.017873645
tstate=2048 phi=-0.2236936003398606 phidot=-0.017874763081074427
tard=2055 steps=28 speed=0.0 pwm=0.0 volt=3.78479 mode=4
tgy=2058 gy=-0.016651914
tstate=2058 phi=-0.22408025255190622 phidot=-0.016653031786352107
tard=2069 steps=28 speed=0.0 pwm=0.0 volt=3.796692 mode=4
